rosnode: node is [/makarenko_turtle]
pinging /makarenko_turtle with a timeout of 3.0s
xmlrpc reply from http://localhost:32999/	time=1.056910ms
xmlrpc reply from http://localhost:32999/	time=1.212120ms
xmlrpc reply from http://localhost:32999/	time=0.825882ms
xmlrpc reply from http://localhost:32999/	time=0.933886ms
xmlrpc reply from http://localhost:32999/	time=0.988007ms
xmlrpc reply from http://localhost:32999/	time=19.324064ms
xmlrpc reply from http://localhost:32999/	time=0.996113ms
xmlrpc reply from http://localhost:32999/	time=0.988007ms
xmlrpc reply from http://localhost:32999/	time=2.684832ms
xmlrpc reply from http://localhost:32999/	time=1.398087ms
xmlrpc reply from http://localhost:32999/	time=0.771046ms
xmlrpc reply from http://localhost:32999/	time=0.946999ms
xmlrpc reply from http://localhost:32999/	time=0.980854ms
xmlrpc reply from http://localhost:32999/	time=4.745960ms
xmlrpc reply from http://localhost:32999/	time=1.122952ms
xmlrpc reply from http://localhost:32999/	time=1.458883ms
xmlrpc reply from http://localhost:32999/	time=0.890017ms
xmlrpc reply from http://localhost:32999/	time=0.760078ms
xmlrpc reply from http://localhost:32999/	time=27.163982ms
xmlrpc reply from http://localhost:32999/	time=1.018047ms
xmlrpc reply from http://localhost:32999/	time=11.813879ms
xmlrpc reply from http://localhost:32999/	time=1.010895ms
xmlrpc reply from http://localhost:32999/	time=1.511097ms
xmlrpc reply from http://localhost:32999/	time=0.885010ms
xmlrpc reply from http://localhost:32999/	time=2.923012ms
xmlrpc reply from http://localhost:32999/	time=1.125097ms
xmlrpc reply from http://localhost:32999/	time=1.111031ms
xmlrpc reply from http://localhost:32999/	time=1.265049ms
xmlrpc reply from http://localhost:32999/	time=2.853870ms
xmlrpc reply from http://localhost:32999/	time=0.842094ms
xmlrpc reply from http://localhost:32999/	time=0.921011ms
xmlrpc reply from http://localhost:32999/	time=1.286030ms
xmlrpc reply from http://localhost:32999/	time=10.725975ms
xmlrpc reply from http://localhost:32999/	time=6.551981ms
xmlrpc reply from http://localhost:32999/	time=2.072811ms
xmlrpc reply from http://localhost:32999/	time=0.943899ms
xmlrpc reply from http://localhost:32999/	time=0.993013ms
xmlrpc reply from http://localhost:32999/	time=0.920057ms
xmlrpc reply from http://localhost:32999/	time=9.627104ms
xmlrpc reply from http://localhost:32999/	time=18.918991ms
xmlrpc reply from http://localhost:32999/	time=0.895023ms
xmlrpc reply from http://localhost:32999/	time=2.151012ms
xmlrpc reply from http://localhost:32999/	time=1.235962ms
xmlrpc reply from http://localhost:32999/	time=1.952887ms
xmlrpc reply from http://localhost:32999/	time=2.580166ms
xmlrpc reply from http://localhost:32999/	time=1.126051ms
xmlrpc reply from http://localhost:32999/	time=10.246038ms
xmlrpc reply from http://localhost:32999/	time=4.837036ms
xmlrpc reply from http://localhost:32999/	time=0.905037ms
xmlrpc reply from http://localhost:32999/	time=0.911951ms
xmlrpc reply from http://localhost:32999/	time=1.039982ms
xmlrpc reply from http://localhost:32999/	time=0.806093ms
xmlrpc reply from http://localhost:32999/	time=25.405884ms
xmlrpc reply from http://localhost:32999/	time=1.024961ms
xmlrpc reply from http://localhost:32999/	time=1.353979ms
xmlrpc reply from http://localhost:32999/	time=0.751019ms
xmlrpc reply from http://localhost:32999/	time=0.787973ms
xmlrpc reply from http://localhost:32999/	time=0.916958ms
xmlrpc reply from http://localhost:32999/	time=28.172016ms
xmlrpc reply from http://localhost:32999/	time=7.752895ms
xmlrpc reply from http://localhost:32999/	time=2.244949ms
xmlrpc reply from http://localhost:32999/	time=0.941992ms
xmlrpc reply from http://localhost:32999/	time=1.152992ms
xmlrpc reply from http://localhost:32999/	time=1.310110ms
xmlrpc reply from http://localhost:32999/	time=1.231909ms
xmlrpc reply from http://localhost:32999/	time=1.544952ms
xmlrpc reply from http://localhost:32999/	time=0.952959ms
xmlrpc reply from http://localhost:32999/	time=1.729012ms
xmlrpc reply from http://localhost:32999/	time=0.834942ms
xmlrpc reply from http://localhost:32999/	time=1.038074ms
xmlrpc reply from http://localhost:32999/	time=12.811899ms
xmlrpc reply from http://localhost:32999/	time=1.303911ms
xmlrpc reply from http://localhost:32999/	time=0.896215ms
xmlrpc reply from http://localhost:32999/	time=1.238823ms
xmlrpc reply from http://localhost:32999/	time=0.925064ms
xmlrpc reply from http://localhost:32999/	time=1.424074ms
xmlrpc reply from http://localhost:32999/	time=0.880003ms
xmlrpc reply from http://localhost:32999/	time=0.889063ms
xmlrpc reply from http://localhost:32999/	time=1.132011ms
xmlrpc reply from http://localhost:32999/	time=0.783920ms
xmlrpc reply from http://localhost:32999/	time=16.826868ms
xmlrpc reply from http://localhost:32999/	time=11.425018ms
xmlrpc reply from http://localhost:32999/	time=1.227856ms
xmlrpc reply from http://localhost:32999/	time=1.170874ms
xmlrpc reply from http://localhost:32999/	time=1.274824ms
xmlrpc reply from http://localhost:32999/	time=0.885010ms
xmlrpc reply from http://localhost:32999/	time=0.853062ms
xmlrpc reply from http://localhost:32999/	time=1.502991ms
xmlrpc reply from http://localhost:32999/	time=0.813007ms
xmlrpc reply from http://localhost:32999/	time=1.199961ms
xmlrpc reply from http://localhost:32999/	time=21.972895ms
xmlrpc reply from http://localhost:32999/	time=0.892162ms
xmlrpc reply from http://localhost:32999/	time=1.220226ms
xmlrpc reply from http://localhost:32999/	time=1.201153ms
xmlrpc reply from http://localhost:32999/	time=1.086950ms
xmlrpc reply from http://localhost:32999/	time=1.013041ms
xmlrpc reply from http://localhost:32999/	time=0.924110ms
xmlrpc reply from http://localhost:32999/	time=1.228094ms
xmlrpc reply from http://localhost:32999/	time=19.310951ms
xmlrpc reply from http://localhost:32999/	time=20.514011ms
xmlrpc reply from http://localhost:32999/	time=1.179934ms
xmlrpc reply from http://localhost:32999/	time=22.720098ms
xmlrpc reply from http://localhost:32999/	time=0.894070ms
xmlrpc reply from http://localhost:32999/	time=1.023054ms
xmlrpc reply from http://localhost:32999/	time=1.173973ms
xmlrpc reply from http://localhost:32999/	time=1.002073ms
xmlrpc reply from http://localhost:32999/	time=0.983953ms
xmlrpc reply from http://localhost:32999/	time=39.780855ms
xmlrpc reply from http://localhost:32999/	time=0.922203ms
xmlrpc reply from http://localhost:32999/	time=1.471043ms
xmlrpc reply from http://localhost:32999/	time=1.173019ms
xmlrpc reply from http://localhost:32999/	time=1.534939ms
xmlrpc reply from http://localhost:32999/	time=7.676125ms
xmlrpc reply from http://localhost:32999/	time=8.852959ms
xmlrpc reply from http://localhost:32999/	time=18.100023ms
xmlrpc reply from http://localhost:32999/	time=3.324986ms
xmlrpc reply from http://localhost:32999/	time=0.933886ms
xmlrpc reply from http://localhost:32999/	time=11.215925ms
xmlrpc reply from http://localhost:32999/	time=4.236937ms
xmlrpc reply from http://localhost:32999/	time=0.962973ms
xmlrpc reply from http://localhost:32999/	time=26.345015ms
xmlrpc reply from http://localhost:32999/	time=0.804901ms
xmlrpc reply from http://localhost:32999/	time=10.390997ms
xmlrpc reply from http://localhost:32999/	time=1.065016ms
xmlrpc reply from http://localhost:32999/	time=1.186132ms
xmlrpc reply from http://localhost:32999/	time=1.049042ms
xmlrpc reply from http://localhost:32999/	time=7.549047ms
xmlrpc reply from http://localhost:32999/	time=17.455101ms
xmlrpc reply from http://localhost:32999/	time=1.219988ms
xmlrpc reply from http://localhost:32999/	time=1.146078ms
xmlrpc reply from http://localhost:32999/	time=1.024008ms
xmlrpc reply from http://localhost:32999/	time=0.828028ms
xmlrpc reply from http://localhost:32999/	time=1.682997ms
xmlrpc reply from http://localhost:32999/	time=0.957966ms
xmlrpc reply from http://localhost:32999/	time=1.068115ms
xmlrpc reply from http://localhost:32999/	time=1.176834ms
xmlrpc reply from http://localhost:32999/	time=1.019955ms
xmlrpc reply from http://localhost:32999/	time=0.775099ms
xmlrpc reply from http://localhost:32999/	time=0.941992ms
xmlrpc reply from http://localhost:32999/	time=0.905991ms
xmlrpc reply from http://localhost:32999/	time=1.024961ms
xmlrpc reply from http://localhost:32999/	time=5.291939ms
xmlrpc reply from http://localhost:32999/	time=0.960112ms
xmlrpc reply from http://localhost:32999/	time=9.008884ms
xmlrpc reply from http://localhost:32999/	time=1.051903ms
xmlrpc reply from http://localhost:32999/	time=1.154184ms
xmlrpc reply from http://localhost:32999/	time=1.012087ms
xmlrpc reply from http://localhost:32999/	time=1.092911ms
xmlrpc reply from http://localhost:32999/	time=0.702143ms
xmlrpc reply from http://localhost:32999/	time=1.222849ms
xmlrpc reply from http://localhost:32999/	time=0.905991ms
xmlrpc reply from http://localhost:32999/	time=0.797987ms
xmlrpc reply from http://localhost:32999/	time=0.977993ms
xmlrpc reply from http://localhost:32999/	time=1.100063ms
xmlrpc reply from http://localhost:32999/	time=1.317978ms
xmlrpc reply from http://localhost:32999/	time=1.430988ms
xmlrpc reply from http://localhost:32999/	time=1.075029ms
xmlrpc reply from http://localhost:32999/	time=1.082182ms
xmlrpc reply from http://localhost:32999/	time=1.392126ms
xmlrpc reply from http://localhost:32999/	time=4.416943ms
xmlrpc reply from http://localhost:32999/	time=19.087076ms
xmlrpc reply from http://localhost:32999/	time=0.722885ms
xmlrpc reply from http://localhost:32999/	time=1.404047ms
xmlrpc reply from http://localhost:32999/	time=0.977039ms
xmlrpc reply from http://localhost:32999/	time=0.794888ms
xmlrpc reply from http://localhost:32999/	time=0.921011ms
xmlrpc reply from http://localhost:32999/	time=2.476931ms
xmlrpc reply from http://localhost:32999/	time=1.097918ms
xmlrpc reply from http://localhost:32999/	time=0.813007ms
xmlrpc reply from http://localhost:32999/	time=0.932932ms
xmlrpc reply from http://localhost:32999/	time=1.098156ms
xmlrpc reply from http://localhost:32999/	time=4.915953ms
xmlrpc reply from http://localhost:32999/	time=4.111052ms
xmlrpc reply from http://localhost:32999/	time=0.893116ms
xmlrpc reply from http://localhost:32999/	time=0.926018ms
xmlrpc reply from http://localhost:32999/	time=0.853777ms
xmlrpc reply from http://localhost:32999/	time=0.796080ms
xmlrpc reply from http://localhost:32999/	time=3.047943ms
xmlrpc reply from http://localhost:32999/	time=0.975847ms
xmlrpc reply from http://localhost:32999/	time=1.097918ms
xmlrpc reply from http://localhost:32999/	time=0.921011ms
xmlrpc reply from http://localhost:32999/	time=0.898123ms
xmlrpc reply from http://localhost:32999/	time=5.546093ms
xmlrpc reply from http://localhost:32999/	time=0.755072ms
xmlrpc reply from http://localhost:32999/	time=1.067877ms
xmlrpc reply from http://localhost:32999/	time=0.808001ms
xmlrpc reply from http://localhost:32999/	time=1.019955ms
xmlrpc reply from http://localhost:32999/	time=0.706911ms
xmlrpc reply from http://localhost:32999/	time=1.258135ms
xmlrpc reply from http://localhost:32999/	time=0.977993ms
xmlrpc reply from http://localhost:32999/	time=1.390934ms
xmlrpc reply from http://localhost:32999/	time=8.053064ms
xmlrpc reply from http://localhost:32999/	time=0.830889ms
xmlrpc reply from http://localhost:32999/	time=0.962973ms
xmlrpc reply from http://localhost:32999/	time=1.028061ms
xmlrpc reply from http://localhost:32999/	time=0.945807ms
xmlrpc reply from http://localhost:32999/	time=2.514839ms
xmlrpc reply from http://localhost:32999/	time=0.892162ms
xmlrpc reply from http://localhost:32999/	time=3.988028ms
xmlrpc reply from http://localhost:32999/	time=8.161783ms
xmlrpc reply from http://localhost:32999/	time=1.138926ms
xmlrpc reply from http://localhost:32999/	time=9.598017ms
xmlrpc reply from http://localhost:32999/	time=0.963926ms
xmlrpc reply from http://localhost:32999/	time=2.694130ms
xmlrpc reply from http://localhost:32999/	time=1.137972ms
xmlrpc reply from http://localhost:32999/	time=0.886917ms
xmlrpc reply from http://localhost:32999/	time=25.455952ms
xmlrpc reply from http://localhost:32999/	time=1.064062ms
xmlrpc reply from http://localhost:32999/	time=0.751972ms
xmlrpc reply from http://localhost:32999/	time=1.130104ms