<?xml version="1.0" encoding="utf-8"?> 
<COLLADA xmlns="http://www.collada.org/2005/11/COLLADASchema" version="1.4.1">
  <asset>
    <contributor>
      <author>Blender User</author>
      <authoring_tool>Blender 2.64.0 r51232</authoring_tool>
    </contributor>
    <created>2013-03-22T08:19:53</created>
    <modified>2013-03-22T08:19:53</modified>
    <unit name="meter" meter="1"/>
    <up_axis>Z_UP</up_axis>
  </asset>
  <library_cameras>
    <camera id="Camera-camera" name="Camera">
      <optics>
        <technique_common>
          <perspective>
            <xfov sid="xfov">49.13434</xfov>
            <aspect_ratio>1.777778</aspect_ratio>
            <znear sid="znear">0.1</znear>
            <zfar sid="zfar">100</zfar>
          </perspective>
        </technique_common>
      </optics>
    </camera>
  </library_cameras>
  <library_lights>
    <light id="Lamp-light" name="Lamp">
      <technique_common>
        <point>
          <color sid="color">1 1 1</color>
          <constant_attenuation>1</constant_attenuation>
          <linear_attenuation>0</linear_attenuation>
          <quadratic_attenuation>0.00111109</quadratic_attenuation>
        </point>
      </technique_common>
      <extra>
        <technique profile="blender">
          <adapt_thresh>0.000999987</adapt_thresh>
          <area_shape>0</area_shape>
          <area_size>1</area_size>
          <area_sizey>1</area_sizey>
          <area_sizez>1</area_sizez>
          <atm_distance_factor>1</atm_distance_factor>
          <atm_extinction_factor>1</atm_extinction_factor>
          <atm_turbidity>2</atm_turbidity>
          <att1>0</att1>
          <att2>1</att2>
          <backscattered_light>1</backscattered_light>
          <bias>1</bias>
          <blue>1</blue>
          <buffers>1</buffers>
          <bufflag>0</bufflag>
          <bufsize>2880</bufsize>
          <buftype>2</buftype>
          <clipend>30.002</clipend>
          <clipsta>1.000799</clipsta>
          <compressthresh>0.04999995</compressthresh>
          <dist sid="blender_dist">29.99998</dist>
          <energy sid="blender_energy">1</energy>
          <falloff_type>2</falloff_type>
          <filtertype>0</filtertype>
          <flag>0</flag>
          <gamma sid="blender_gamma">1</gamma>
          <green>1</green>
          <halo_intensity sid="blnder_halo_intensity">1</halo_intensity>
          <horizon_brightness>1</horizon_brightness>
          <mode>8192</mode>
          <ray_samp>1</ray_samp>
          <ray_samp_method>1</ray_samp_method>
          <ray_samp_type>0</ray_samp_type>
          <ray_sampy>1</ray_sampy>
          <ray_sampz>1</ray_sampz>
          <red>1</red>
          <samp>3</samp>
          <shadhalostep>0</shadhalostep>
          <shadow_b sid="blender_shadow_b">0</shadow_b>
          <shadow_g sid="blender_shadow_g">0</shadow_g>
          <shadow_r sid="blender_shadow_r">0</shadow_r>
          <shadspotsize>45</shadspotsize>
          <sky_colorspace>0</sky_colorspace>
          <sky_exposure>1</sky_exposure>
          <skyblendfac>1</skyblendfac>
          <skyblendtype>1</skyblendtype>
          <soft>3</soft>
          <spotblend>0.15</spotblend>
          <spotsize>75</spotsize>
          <spread>1</spread>
          <sun_brightness>1</sun_brightness>
          <sun_effect_type>0</sun_effect_type>
          <sun_intensity>1</sun_intensity>
          <sun_size>1</sun_size>
          <type>0</type>
        </technique>
      </extra>
    </light>
  </library_lights>
  <library_images/>
  <library_effects>
    <effect id="black-effect">
      <profile_COMMON>
        <technique sid="common">
          <phong>
            <emission>
              <color sid="emission">0 0 0 1</color>
            </emission>
            <ambient>
              <color sid="ambient">0 0 0 1</color>
            </ambient>
            <diffuse>
              <color sid="diffuse">0.020312 0.020312 0.020312 1</color>
            </diffuse>
            <specular>
              <color sid="specular">0.25 0.25 0.25 1</color>
            </specular>
            <shininess>
              <float sid="shininess">12</float>
            </shininess>
            <index_of_refraction>
              <float sid="index_of_refraction">1</float>
            </index_of_refraction>
          </phong>
        </technique>
        <extra>
          <technique profile="GOOGLEEARTH">
            <double_sided>1</double_sided>
          </technique>
        </extra>
      </profile_COMMON>
      <extra><technique profile="MAX3D"><double_sided>1</double_sided></technique></extra>
    </effect>
    <effect id="white_001-effect">
      <profile_COMMON>
        <technique sid="common">
          <phong>
            <emission>
              <color sid="emission">0 0 0 1</color>
            </emission>
            <ambient>
              <color sid="ambient">0 0 0 1</color>
            </ambient>
            <diffuse>
              <color sid="diffuse">0.695112 0.695112 0.695112 1</color>
            </diffuse>
            <specular>
              <color sid="specular">0.0625 0.0625 0.0625 1</color>
            </specular>
            <shininess>
              <float sid="shininess">0</float>
            </shininess>
            <index_of_refraction>
              <float sid="index_of_refraction">1</float>
            </index_of_refraction>
          </phong>
        </technique>
        <extra>
          <technique profile="GOOGLEEARTH">
            <double_sided>1</double_sided>
          </technique>
        </extra>
      </profile_COMMON>
      <extra><technique profile="MAX3D"><double_sided>1</double_sided></technique></extra>
    </effect>
  </library_effects>
  <library_materials>
    <material id="black-material" name="black-material">
      <instance_effect url="#black-effect"/>
    </material>
    <material id="white_001-material" name="white_001-material">
      <instance_effect url="#white_001-effect"/>
    </material>
  </library_materials>
  <library_geometries>
    <geometry id="Mesh-mesh" name="Mesh">
      <mesh>
        <source id="Mesh-mesh-positions">
          <float_array id="Mesh-mesh-positions-array" count="1941">-0.02213996 0.005949974 -0.004869997 -0.02213996 0.005949974 0.004869997 -0.02164 0.009949982 -0.004999995 -0.02164 0.009949982 -0.005999982 -0.02164 0.009949982 0.004999995 -0.02164 0.009949982 0.005999982 -0.02149999 0.009949982 -0.006499946 -0.02149999 0.009949982 0.006499946 -0.02113997 0.009949982 -0.006869971 -0.02113997 0.009949982 0.006869971 -0.02063995 0.005949974 0.006999969 -0.02063995 0.009949982 -0.006999969 -0.02063995 0.009949982 0.006999969 -0.01979994 0.009949982 -0.006999969 -0.01979994 0.005949974 -0.006999969 -0.01979994 0.005949974 0.006999969 -0.01979994 0.009949982 0.006999969 -0.01838999 0.005949974 0.01014 -0.02063995 0.005949974 -0.006999969 -0.02113997 0.005949974 0.006869971 -0.02113997 0.005949974 -0.006869971 -0.02149999 0.005949974 0.006499946 -0.02149999 0.005949974 -0.006499946 -0.02164 0.005949974 0.005999982 -0.02164 0.005949974 0.004999995 -0.02164 0.005949974 -0.004999995 -0.02164 0.005949974 -0.005999982 -0.01920998 0.01990997 0.004999995 -0.01920998 0.01990997 -0.004999995 -0.005279958 0.02695 -0.01798999 -0.009719967 0.02695 -0.01595997 -0.01014 0.02695 -0.01576995 -0.01365 0.02695 -0.01273 -0.01416999 0.02695 -0.01227998 -0.01655995 0.02695 -0.008569955 -0.01705998 0.02695 -0.007789969 -0.01822996 0.02695 -0.003779947 -0.01855999 0.02695 -0.00266999 -0.01855999 0.02695 0.00127995 -0.01855999 0.02695 0.00266999 -0.01750999 0.02695 0.006229996 -0.01705998 0.02695 0.007789969 -0.01516997 0.02695 0.01071995 -0.01416999 0.02695 0.01227998 -0.01170998 0.02695 0.01440995 -0.01014 0.02695 0.01576995 -0.007389962 0.02695 0.01703 -0.005279958 0.02695 0.01798999 -0.002529978 0.02695 0.01838999 0 0.02695 0.01874995 0.002529978 0.02695 0.01838999 0.005279958 0.02695 0.01798999 0.007389962 0.02695 0.01703 0.01014 0.02695 0.01576995 0.01170998 0.02695 0.01440995 0.01416999 0.02695 0.01227998 0.01516997 0.02695 0.01071995 0.01705998 0.02695 0.007789969 0.01750999 0.02695 0.006229996 0.01855999 0.02695 0.00266999 0.01855999 0.02695 0.00127995 0.01855999 0.02695 -0.00266999 0.01822996 0.02695 -0.003779947 0.01705998 0.02695 -0.007789969 0.01655995 0.02695 -0.008569955 0.01416999 0.02695 -0.01227998 0.01365 0.02695 -0.01273 0.01014 0.02695 -0.01576995 0.009719967 0.02695 -0.01595997 0.005279958 0.02695 -0.01798999 0.005049943 0.02695 -0.01801997 -0.005049943 0.02695 -0.01801997 0 0.02695 -0.01874995 -0.01885998 0.02594995 0.001289963 -0.01850998 0.02594995 -0.003849983 -0.02039998 0.009949982 -0.004999995 -0.02039998 0.009949982 0.004999995 -0.01848 0.02594995 0.003999948 -0.01836997 0.02572995 0.004629969 -0.01840996 0.02588999 0.004329979 -0.01838999 0.02579998 0.004489958 -0.01835 0.02544999 0.004859983 -0.01838999 0.02494996 0.004999995 -0.01835995 0.02517998 0.004969954 -0.02164 0.02494996 0.004999995 -0.02164 0.02544999 0.004869997 -0.02188998 0.02537995 0.004869997 -0.02206999 0.02519994 0.004869997 -0.02213996 0.02494996 0.004869997 -0.02164 0.02581995 0.004499971 -0.02206999 0.02569997 0.004499971 -0.02238994 0.02537995 0.004499971 -0.02249997 0.02494996 0.004499971 -0.02164 0.02594995 0.003999948 -0.02213996 0.02581995 0.003999948 -0.02263998 0.02494996 0.003999948 -0.02249997 0.02544999 0.003999948 -0.02213996 0.02581995 -0.003999948 -0.02249997 0.02544999 -0.003999948 -0.02263998 0.02494996 -0.003999948 -0.02206999 0.02569997 -0.004499971 -0.02188998 0.02537995 -0.004869997 -0.02238994 0.02537995 -0.004499971 -0.02249997 0.02494996 -0.004499971 -0.02206999 0.02519994 -0.004869997 -0.02213996 0.02494996 -0.004869997 -0.01838999 0.02494996 -0.004999995 -0.02164 0.02494996 -0.004999995 -0.01835 0.02555996 -0.004789948 -0.01835995 0.02526998 -0.004949986 -0.01835 0.02543997 -0.00484997 -0.01836997 0.02577996 -0.004559993 -0.02164 0.02544999 -0.004869997 -0.02164 0.02581995 -0.004499971 -0.01848 0.02594995 -0.003999948 -0.02164 0.02594995 -0.003999948 -0.01841998 0.02590996 -0.004269957 -0.02001994 0.01871997 -0.004999995 -0.01986998 0.01879996 -0.004999995 -0.02025997 0.01844996 -0.004999995 -0.02039998 0.01794999 -0.004999995 -0.02037996 0.01813995 -0.004999995 -0.02039998 0.01794999 0.004999995 -0.02033996 0.01826995 0.004999995 -0.01993995 0.01877999 0.004999995 -0.01936 0.01894998 0.004999995 -0.01962 0.01892 0.004999995 -0.01879996 0.01894998 0.006679952 -0.01845997 0.01894998 0.007699966 -0.01936 0.01894998 -0.004999995 -0.01971 0.01888996 -0.004999995 -0.01845997 0.01894998 -0.007699966 -0.01668 0.01894998 -0.01102995 -0.01141995 0.01894998 -0.01641994 -7.8e-4 0.01894998 -0.01997995 0 0.01894998 -0.01993995 0.002989947 0.01894998 -0.01976996 0.01315999 0.01894998 -0.01505994 0.01454997 0.01894998 -0.01358997 0.01576 0.01894998 -0.01230996 0.01990997 0.01894998 0.001369953 0.01990997 0.01894998 -0.001889944 0.01919996 0.01894998 0.005609989 0.01779997 0.01894998 0.009119987 0.00792998 0.01894998 0.01826995 0.01008999 0.01894998 0.01726996 -0.007959961 0.01894998 0.01832997 -0.004529953 0.01894998 0.01947999 -0.01668 0.01894998 0.01102995 -0.01892 0.01881998 0.007889986 -0.02024996 0.01843994 0.004999995 -0.02017998 0.01855999 0.004999995 -0.00812 0.01894998 -0.01827996 0.006659984 0.01894998 -0.01885998 0.01576 0.01894998 0.01230996 0.002989947 0.01894998 0.01976996 0.002719998 0.01894998 0.01978999 -0.01141995 0.01894998 0.01641994 -0.01256996 0.01894998 0.01545 -0.01767998 0.01894998 -0.009159982 -0.01892 0.01881998 -0.007889986 -0.01937997 0.01794999 -0.008079946 -0.01830995 0.01794999 -0.01009994 -0.01925998 0.01844996 -0.008029997 -0.01458996 0.01894998 -0.01362997 -0.01709997 0.01881998 -0.01130998 -0.01750999 0.01794999 -0.01159 -0.0151 0.01794999 -0.01457995 -0.01739996 0.01844996 -0.01150995 -0.01431 0.01894998 -0.01397997 -0.01466 0.01881998 -0.01432996 -0.01501995 0.01794999 -0.01467996 -0.01491999 0.01844996 -0.01457995 -0.01034998 0.01894998 -0.01701998 -0.008319973 0.01881998 -0.01872998 -0.01169997 0.01881998 -0.01682996 -0.01198995 0.01794999 -0.01723998 -0.01190996 0.01844996 -0.01712995 -8.2e-4 0.01794999 -0.02098 -0.004759967 0.01794999 -0.02044999 -0.004729986 0.01844996 -0.02031999 -0.005689978 0.01794999 -0.02013999 -0.01073998 0.01794999 -0.01794999 -0.008529961 0.01794999 -0.01918995 -0.008469998 0.01844996 -0.01906996 -2.5e-4 0.01794999 -0.02094995 -8.2e-4 0.01844996 -0.02085 -8.1e-4 0.01881998 -0.02047997 -0.005379974 0.01894998 -0.01919996 -0.004649996 0.01881998 -0.01996999 -0.004529953 0.01894998 -0.01947999 0.005379974 0.01894998 -0.01917999 0.006829977 0.01881998 -0.01932996 0.003069996 0.01881998 -0.02026998 0.003139972 0.01794999 -0.02075999 0.003119945 0.01844996 -0.02063 0.01381999 0.01794999 -0.01580995 0.01059997 0.01794999 -0.01813 0.01052999 0.01844996 -0.01800996 0.01034998 0.01794999 -0.01824998 0.005209982 0.01794999 -0.02024996 0.006989955 0.01794999 -0.01979994 0.006949961 0.01844996 -0.01966995 0.01469999 0.01794999 -0.01488 0.01372998 0.01844996 -0.01570999 0.01348996 0.01881998 -0.01542997 0.01008999 0.01894998 -0.01726996 0.01034998 0.01881998 -0.01769995 0.01036995 0.01894998 -0.01705998 0.01774996 0.01894998 -0.009199976 0.01823997 0.01881998 -0.009349942 0.01615995 0.01881998 -0.01261997 0.01655 0.01794999 -0.01291996 0.01644998 0.01844996 -0.01283997 0.02090996 0.01794999 -0.00198996 0.02023994 0.01794999 -0.005469977 0.02002996 0.01844996 -0.005849957 0.02015995 0.01794999 -0.005889952 0.01807999 0.01794999 -0.01052999 0.01868999 0.01794999 -0.009579956 0.01857 0.01844996 -0.009519994 0.02090996 0.01794999 0 0.02076995 0.01844996 -0.001969993 0.02041 0.01881998 -0.001939952 0.01919996 0.01894998 -0.005609989 0.01967996 0.01881998 -0.00575 0.01949995 0.01894998 -0.004049956 0.01990997 0.01894998 0.001889944 0.02041 0.01881998 0.001939952 0.02090996 0.01794999 0.00198996 0.02023994 0.01794999 0.005469977 0.02076995 0.01844996 0.001969993 0.01876997 0.01894998 0.006669998 0.01967996 0.01881998 0.00575 0.02015995 0.01794999 0.005889952 0.02002996 0.01844996 0.005849957 0.01627999 0.01894998 0.0115 0.01615995 0.01881998 0.01261997 0.01823997 0.01881998 0.009349942 0.01868999 0.01794999 0.009579956 0.01857 0.01844996 0.009519994 0.01059997 0.01794999 0.01813 0.01381999 0.01794999 0.01580995 0.01372998 0.01844996 0.01570999 0.01469999 0.01794999 0.01488 0.01807999 0.01794999 0.01052999 0.01655 0.01794999 0.01291996 0.01644998 0.01844996 0.01283997 0.01034998 0.01794999 0.01824998 0.01052999 0.01844996 0.01800996 0.01034998 0.01881998 0.01769995 0.01315999 0.01894998 0.01505994 0.01348996 0.01881998 0.01542997 0.01258999 0.01894998 0.01546996 0.006659984 0.01894998 0.01885998 0.003069996 0.01881998 0.02026998 0.006829977 0.01881998 0.01932996 0.006989955 0.01794999 0.01979994 0.006949961 0.01844996 0.01966995 -0.004759967 0.01794999 0.02044999 -8.2e-4 0.01794999 0.02098 -8.2e-4 0.01844996 0.02085 -2.5e-4 0.01794999 0.02094995 0.005209982 0.01794999 0.02024996 0.003139972 0.01794999 0.02075999 0.003119945 0.01844996 0.02063 -0.005689978 0.01794999 0.02013999 -0.004729986 0.01844996 0.02031999 -0.004649996 0.01881998 0.01996999 -7.8e-4 0.01894998 0.01997995 -8.1e-4 0.01881998 0.02047997 -0.002709984 0.01894998 0.01972997 -0.00812 0.01894998 0.01827996 -0.01169997 0.01881998 0.01682996 -0.008319973 0.01881998 0.01872998 -0.008529961 0.01794999 0.01918995 -0.008469998 0.01844996 0.01906996 -0.01750999 0.01794999 0.01159 -0.0151 0.01794999 0.01457995 -0.01491999 0.01844996 0.01457995 -0.01501995 0.01794999 0.01467996 -0.01073998 0.01794999 0.01794999 -0.01198995 0.01794999 0.01723998 -0.01190996 0.01844996 0.01712995 -0.01937997 0.01794999 0.008079946 -0.01830995 0.01794999 0.01009994 -0.01925998 0.01844996 0.008029997 -0.01739996 0.01844996 0.01150995 -0.01709997 0.01881998 0.01130998 -0.01431 0.01894998 0.01397997 -0.01466 0.01881998 0.01432996 -0.01629996 0.01894998 0.0115 -0.01014 0.03504997 -0.01576995 -0.005279958 0.03504997 0.01798999 0 0.03504997 0.01874995 0.005279958 0.03504997 0.01798999 0.01014 0.03504997 0.01576995 0.01416999 0.03504997 0.01227998 0.01705998 0.03504997 0.007789969 0.01855999 0.03504997 0.00266999 0.01855999 0.03504997 -0.00266999 -0.01014 0.03504997 0.01576995 -0.01416999 0.03504997 0.01227998 -0.01705998 0.03504997 0.007789969 -0.01855999 0.03504997 0.00266999 -0.01855999 0.03504997 -0.00266999 -0.01705998 0.03504997 -0.007789969 -0.01416999 0.03504997 -0.01227998 -0.005279958 0.03504997 -0.01798999 0 0.03504997 -0.01874995 0.005279958 0.03504997 -0.01798999 0.01014 0.03504997 -0.01576995 0.01416999 0.03504997 -0.01227998 0.01705998 0.03504997 -0.007789969 0.001609981 0.03494995 -0.01717996 -0.003309965 0.03504997 -0.01692998 -0.003309965 0.03494995 -0.01692998 0.001759946 0.03494995 -0.01713997 0.001969993 0.03494995 -0.01708996 0.001609981 0.03504997 -0.01717996 0.004629969 0.03494995 -0.01644998 0.006399989 0.03494995 -0.01601999 0.007199943 0.03494995 -0.01555997 0.007989943 0.03494995 -0.0151 0.006399989 0.03504997 -0.01601999 0.009659945 0.03494995 -0.01413995 0.01066994 0.03494995 -0.01354998 0.01066994 0.03504997 -0.01354998 0.01512998 0.03494995 -0.007909953 0.01104998 0.03494995 -0.01314997 0.01406997 0.03504997 -0.009979963 0.01406997 0.03494995 -0.009979963 0.01695996 0.03494995 -0.002209961 0.01631999 0.03494995 -0.005589962 0.01631999 0.03504997 -0.005589962 0.01652997 0.03494995 -0.004479944 -0.007969975 0.03494995 -0.01529997 -0.007969975 0.03504997 -0.01529997 -0.009269952 0.03494995 -0.01454997 -0.01002997 0.03494995 0.01388996 -0.01088994 0.03494995 0.01314997 -0.01299995 0.03494995 0.01133996 -0.01299995 0.03504997 0.01133996 -0.01378995 0.03494995 0.01010996 -0.01567995 0.03494995 0.007189989 -0.01567995 0.03504997 0.007189989 -0.01626998 0.03494995 0.005199968 -0.01706999 0.03494995 0.002459943 -0.01706999 0.03494995 0.002019941 -0.01706999 0.03494995 9.7e-4 -0.01706999 0.03494995 6.9e-4 -0.01706999 0.03504997 0.002459943 -0.01706999 0.03494995 -0.002209961 -0.01706999 0.03494995 -0.002459943 -0.01706999 0.03504997 -0.002459943 -0.01647996 0.03494995 -0.004479944 -0.01567995 0.03494995 -0.007189989 -0.01567995 0.03504997 -0.007189989 -0.01521998 0.03494995 -0.007909953 -0.01299995 0.03504997 -0.01133996 -0.01299995 0.03494995 -0.01133996 -0.01002997 0.03494995 -0.01388996 -0.01088994 0.03494995 -0.01314997 -0.009269952 0.03504997 -0.01454997 -0.009269952 0.03494995 0.01454997 -0.009269952 0.03504997 0.01454997 0.01718997 0.03494995 9.7e-4 0.01699 0.03494995 0.002019941 0.01638996 0.03494995 0.005199968 0.01631999 0.03494995 0.005589962 0.01631999 0.03504997 0.005589962 0.01104998 0.03494995 0.01314997 0.01406997 0.03494995 0.009979963 0.01406997 0.03504997 0.009979963 0.01394999 0.03494995 0.01010996 0.01066994 0.03494995 0.01354998 0.009659945 0.03494995 0.01413995 0.01066994 0.03504997 0.01354998 0.007199943 0.03494995 0.01555997 0.006399989 0.03494995 0.01601999 0.006399989 0.03504997 0.01601999 0.004629969 0.03494995 0.01644998 0.001969993 0.03494995 0.01708996 0.001759946 0.03494995 0.01713997 0.001609981 0.03494995 0.01717996 0.001609981 0.03504997 0.01717996 -0.003309965 0.03494995 0.01692998 -0.007969975 0.03504997 0.01529997 -0.007969975 0.03494995 0.01529997 -0.003309965 0.03504997 0.01692998 0.01722997 0.03504997 7.5e-4 0.01722997 0.03494995 7.5e-4 0.01722997 0.03494995 -7.5e-4 0.01722997 0.03504997 -7.5e-4 -0.02063995 0.005949974 0.006999969 -0.02213996 0.005949974 0.004869997 -0.02213996 0.005949974 -0.004869997 -0.02263998 0.005949974 -0.003999948 -0.02263998 0.005949974 0 -0.02263998 0.005949974 0.003999948 -0.02249997 0.005949974 -0.004499971 -0.02249997 0.005949974 0.004499971 -0.01838999 0.005949974 -0.01014 -0.01510995 0.005949974 -0.01458996 -0.01510995 0.005949974 0.01458996 -0.01077997 0.005949974 -0.01801997 -0.01077997 0.005949974 0.01801997 -0.005709946 0.005949974 -0.02020996 -0.005709946 0.005949974 0.02020996 -2.5e-4 0.005949974 -0.02099996 -2.5e-4 0.005949974 0.02099996 0 0.005949974 -0.02096998 0 0.005949974 0.02096998 0.005239963 0.005949974 -0.02033996 0.005239963 0.005949974 0.02033996 0.01036 0.005949974 -0.01826995 0.01036 0.005949974 0.01826995 0.01475995 0.005949974 -0.01493996 0.01475995 0.005949974 0.01493996 0.01814997 0.005949974 -0.01056998 0.01814997 0.005949974 0.01056998 0.02026998 0.005949974 -0.005479991 0.02099996 0.005949974 0 0.02026998 0.005949974 0.005479991 -0.02499997 -0.03504997 -0.023 -0.02499997 -0.03504997 0.023 -0.02472996 -0.03504997 -0.02399998 -0.02472996 -0.03504997 0.02399998 -0.02399998 -0.03504997 -0.02472996 -0.02399998 -0.03504997 0.02472996 -0.02363997 0.003949999 -0.02164 -0.02363997 0.003949999 0.02164 -0.02363997 0.00544995 -0.02164 -0.02363997 0.00544995 0.02164 -0.02357 0.005699992 -0.02164 -0.02357 0.005699992 0.02164 -0.02338999 0.005879998 -0.02164 -0.02338999 0.005879998 0.02164 -0.02336996 0.003959953 0.02263998 -0.02336996 0.00544995 -0.02263998 -0.02336996 0.00544995 0.02263998 -0.02336996 0.003959953 -0.02263998 -0.02331 0.005699992 -0.02260994 -0.02331 0.005699992 0.02260994 -0.02314996 0.005879998 -0.02250999 -0.02314996 0.005879998 0.02250999 -0.02313995 0.005949974 -0.02164 -0.02313995 0.005949974 0 -0.02313995 0.005949974 0.02164 -0.023 -0.03504997 -0.02499997 -0.023 -0.03504997 0.02499997 -0.02293998 0.005949974 -0.02238994 -0.02293998 0.005949974 0.02238994 0 -0.03504997 0 -0.02263998 0.003959953 0.02336996 -0.02263998 0.003959953 -0.02336996 -0.02263998 0.00544995 -0.02336996 -0.02263998 0.00544995 0.02336996 -0.02260994 0.005699992 -0.02331 -0.02260994 0.005699992 0.02331 -0.02250999 0.005879998 -0.02314996 -0.02250999 0.005879998 0.02314996 0 0.005949974 -0.02313995 -0.02164 0.005949974 -0.02313995 -0.02238994 0.005949974 -0.02293998 -0.02238994 0.005949974 0.02293998 -0.02164 0.003949999 -0.02363997 -0.02164 0.003949999 0.02363997 -0.02164 0.00544995 -0.02363997 -0.02164 0.00544995 0.02363997 -0.02164 0.005699992 -0.02357 -0.02164 0.005699992 0.02357 -0.02164 0.005879998 -0.02338999 -0.02164 0.005879998 0.02338999 -0.02164 0.005949974 0.02313995 -0.005709946 0.005949974 -0.02020996 -0.01077997 0.005949974 -0.01801997 -0.01510995 0.005949974 -0.01458996 -0.01838999 0.005949974 -0.01014 -0.02213996 0.005949974 -0.004869997 0 0.005949974 0.02313995 0.02164 0.003949999 -0.02363997 0.02164 0.003949999 0.02363997 0.02164 0.00544995 -0.02363997 0.02164 0.00544995 0.02363997 0.02164 0.005699992 -0.02357 0.02164 0.005699992 0.02357 0.02164 0.005879998 -0.02338999 0.02164 0.005879998 0.02338999 0.02164 0.005949974 -0.02313995 0.02164 0.005949974 0.02313995 0.02238994 0.005949974 -0.02293998 0.02238994 0.005949974 0.02293998 0.02250999 0.005879998 -0.02314996 0.02250999 0.005879998 0.02314996 0.02260994 0.005699992 -0.02331 0.02260994 0.005699992 0.02331 0.02263998 0.003959953 -0.02336996 0.02263998 0.003959953 0.02336996 0.02263998 0.00544995 -0.02336996 0.02263998 0.00544995 0.02336996 0.02293998 0.005949974 -0.02238994 0.02293998 0.005949974 0.02238994 0.023 -0.03504997 -0.02499997 0.023 -0.03504997 0.02499997 0.02313995 0.005949974 -0.02164 0.02313995 0.005949974 0 0.02313995 0.005949974 0.02164 0.02314996 0.005879998 -0.02250999 0.02314996 0.005879998 0.02250999 0.02331 0.005699992 -0.02260994 0.02331 0.005699992 0.02260994 0.02336996 0.003959953 -0.02263998 0.02336996 0.003959953 0.02263998 0.02336996 0.00544995 -0.02263998 0.02336996 0.00544995 0.02263998 0.02338999 0.005879998 -0.02164 0.02338999 0.005879998 0.02164 0.02357 0.005699992 -0.02164 0.02357 0.005699992 0.02164 0.02363997 0.003949999 -0.02164 0.02363997 0.003949999 0.02164 0.02363997 0.00544995 -0.02164 0.02363997 0.00544995 0.02164 0.02399998 -0.03504997 -0.02472996 0.02399998 -0.03504997 0.02472996 0.02472996 -0.03504997 -0.02399998 0.02472996 -0.03504997 0.02399998 0.02499997 -0.03504997 -0.023 0.02499997 -0.03504997 0.023 0 0.03504997 0 -0.02213996 0.005949974 0.004869997 -0.02063995 0.005949974 0.006999969 -0.01979994 0.005949974 0.006999969 -0.01838999 0.005949974 0.01014 -0.02113997 0.005949974 0.006869971 -0.02149999 0.005949974 0.006499946 -0.02164 0.005949974 0.005999982 -0.02164 0.005949974 0.004999995 -0.02263998 0.005949974 -0.003999948 -0.02263998 0.005949974 0.003999948 -0.02249997 0.005949974 -0.004499971 -0.02249997 0.005949974 0.004499971 -0.01838999 0.005949974 -0.01014 -0.01510995 0.005949974 -0.01458996 -0.01510995 0.005949974 0.01458996 -0.01077997 0.005949974 -0.01801997 -0.01077997 0.005949974 0.01801997 -0.005709946 0.005949974 -0.02020996 -0.005709946 0.005949974 0.02020996 -2.5e-4 0.005949974 -0.02099996 -2.5e-4 0.005949974 0.02099996 0 0.005949974 -0.02096998 0 0.005949974 0.02096998 0.005239963 0.005949974 -0.02033996 0.005239963 0.005949974 0.02033996 0.01036 0.005949974 -0.01826995 0.01036 0.005949974 0.01826995 0.01475995 0.005949974 -0.01493996 0.01475995 0.005949974 0.01493996 0.01814997 0.005949974 -0.01056998 0.01814997 0.005949974 0.01056998 0.02026998 0.005949974 -0.005479991 0.02099996 0.005949974 0 0.02026998 0.005949974 0.005479991 -0.005709946 0.005949974 -0.02020996 -0.01077997 0.005949974 -0.01801997 -0.01510995 0.005949974 -0.01458996 -0.01838999 0.005949974 -0.01014 -0.01979994 0.005949974 0.006999969 -0.01838999 0.005949974 0.01014 -0.02113997 0.005949974 0.006869971 -0.02149999 0.005949974 0.006499946 -0.02164 0.005949974 0.005999982 -0.02164 0.005949974 0.004999995 -0.02263998 0.005949974 -0.003999948 -0.02263998 0.005949974 0.003999948 -0.02249997 0.005949974 -0.004499971 -0.02249997 0.005949974 0.004499971 -0.01838999 0.005949974 -0.01014 -0.01510995 0.005949974 -0.01458996 -0.01510995 0.005949974 0.01458996 -0.01077997 0.005949974 -0.01801997 -0.01077997 0.005949974 0.01801997 -0.005709946 0.005949974 -0.02020996 -0.005709946 0.005949974 0.02020996 -2.5e-4 0.005949974 -0.02099996 -2.5e-4 0.005949974 0.02099996 0 0.005949974 -0.02096998 0 0.005949974 0.02096998 0.005239963 0.005949974 -0.02033996 0.005239963 0.005949974 0.02033996 0.01036 0.005949974 -0.01826995 0.01036 0.005949974 0.01826995 0.01475995 0.005949974 -0.01493996 0.01475995 0.005949974 0.01493996 0.01814997 0.005949974 -0.01056998 0.01814997 0.005949974 0.01056998 0.02026998 0.005949974 -0.005479991 0.02099996 0.005949974 0 0.02026998 0.005949974 0.005479991 -0.005709946 0.005949974 -0.02020996 -0.01077997 0.005949974 -0.01801997 -0.01510995 0.005949974 -0.01458996 -0.01838999 0.005949974 -0.01014 -0.02063995 0.005949974 0.006999969 -0.02213996 0.005949974 0.004869997 -0.02213996 0.005949974 -0.004869997 -0.01979994 0.005949974 0.006999969 -0.01838999 0.005949974 0.01014 -0.02113997 0.005949974 0.006869971 -0.02149999 0.005949974 0.006499946 -0.02164 0.005949974 0.005999982 -0.02164 0.005949974 0.004999995 -0.02263998 0.005949974 -0.003999948 -0.02263998 0.005949974 0.003999948 -0.02249997 0.005949974 -0.004499971 -0.02249997 0.005949974 0.004499971 -0.01838999 0.005949974 -0.01014 -0.01510995 0.005949974 -0.01458996 -0.01510995 0.005949974 0.01458996 -0.01077997 0.005949974 -0.01801997 -0.01077997 0.005949974 0.01801997 -0.005709946 0.005949974 -0.02020996 -0.005709946 0.005949974 0.02020996 -2.5e-4 0.005949974 -0.02099996 -2.5e-4 0.005949974 0.02099996 0 0.005949974 -0.02096998 0 0.005949974 0.02096998 0.005239963 0.005949974 -0.02033996 0.005239963 0.005949974 0.02033996 0.01036 0.005949974 -0.01826995 0.01036 0.005949974 0.01826995 0.01475995 0.005949974 -0.01493996 0.01475995 0.005949974 0.01493996 0.01814997 0.005949974 -0.01056998 0.01814997 0.005949974 0.01056998 0.02026998 0.005949974 -0.005479991 0.02099996 0.005949974 0 0.02026998 0.005949974 0.005479991 -0.005709946 0.005949974 -0.02020996 -0.01077997 0.005949974 -0.01801997 -0.01510995 0.005949974 -0.01458996 -0.01838999 0.005949974 -0.01014 -0.00945729 0.003627836 -0.001710772 0 -0.01554995 0.02431994 0 0.005949974 0</float_array>
          <technique_common>
            <accessor source="#Mesh-mesh-positions-array" count="647" stride="3">
              <param name="X" type="float"/>
              <param name="Y" type="float"/>
              <param name="Z" type="float"/>
            </accessor>
          </technique_common>
        </source>
        <source id="Mesh-mesh-normals">
          <float_array id="Mesh-mesh-normals-array" count="3417">0 -1 0 0 -1 0 -0.9492978 0 -0.3143782 -0.9492978 0 0.3143782 -0.7785766 0.001171708 0.6275485 -0.7808654 0.001171231 0.6246982 -0.6209343 -0.001221954 0.7838616 -0.6453004 -0.01542252 0.7637733 -0.3964945 -0.0151537 0.9179121 -0.4893132 0.006718158 0.8720822 -0.4938785 0.006718337 0.8695049 -0.1431924 -0.008457064 0.9896588 -0.316222 0.006060898 0.9486659 -0.3172233 0.0060606 0.9483315 0.2392156 0.007879972 0.9709345 0.119358 -0.01385879 0.9927546 0.0559594 0.00282979 0.9984291 0.1191433 0.00413686 0.9928685 0.05255794 0.004160761 0.9986092 -0.1333157 -0.004680752 0.9910625 0.2450903 0.007883667 0.9694681 0.3747907 -0.01294112 0.9270192 0.4188861 0.001862525 0.9080369 0.4327281 0.001863181 0.9015226 0.6034716 -0.002766609 0.7973797 0.5845207 -0.01302987 0.8112742 0.7900453 -0.01468151 0.6128727 0.7272006 0.007067918 0.6863886 0.7263449 0.007068157 0.6872941 0.9823358 0.002611696 0.1871086 0.9289886 -0.004128932 0.3700852 0.9230861 -0.009820222 0.3844679 0.8414472 0.006709396 0.5402976 0.8421885 0.006709873 0.5391413 0.9819628 0.002612411 0.1890563 0.9911401 -0.01446169 0.1320315 0.9999719 0.007499694 0 0.9999719 0.007499694 0 0.9911401 -0.01446169 -0.1320315 0.9819628 0.002612411 -0.1890563 0.9823358 0.002611696 -0.1871086 0.9231205 -0.004674613 -0.3844823 0.9289375 -0.01127177 -0.3700649 0.7900453 -0.01468151 -0.6128727 0.8421885 0.006709873 -0.5391413 0.8414472 0.006709396 -0.5402976 0.4327281 0.001863181 -0.9015226 0.5845689 -0.002225697 -0.8113411 0.6034404 -0.0105375 -0.7973385 0.7263449 0.007068157 -0.6872941 0.7272006 0.007067918 -0.6863886 0.4188861 0.001862525 -0.9080369 0.3747907 -0.01294112 -0.9270192 0.2450903 0.007883667 -0.9694681 0.2392156 0.007879972 -0.9709345 0.119358 -0.01385879 -0.9927546 0.0559594 0.00282979 -0.9984291 0.1191433 0.00413686 -0.9928685 0.05255794 0.004160761 -0.9986092 -0.1431956 -0.005152344 -0.989681 -0.1333114 -0.009266734 -0.9910309 -0.3964945 -0.0151537 -0.9179121 -0.3172233 0.0060606 -0.9483315 -0.316222 0.006060898 -0.9486659 -0.7808654 0.001171231 -0.6246982 -0.6453768 -8.88654e-4 -0.7638639 -0.6208926 -0.01165908 -0.783809 -0.4938785 0.006718337 -0.8695049 -0.4893132 0.006718158 -0.8720822 -0.7785766 0.001171708 -0.6275485 -0.8049004 -0.01266139 -0.5932749 -0.881016 0.007450222 -0.4730277 0 0 1 0 0 1 0 0 1 0 0 1 0 0 1 0 0 1 0 0 1 0 0 1 0 0 -1 0 0 -1 0 0 -1 0 0 -1 0 0 -1 0 0 -1 0 0 -1 -0.9471516 0.1680965 0.2732169 -0.407418 0.1514139 -0.9006023 -0.9422059 0.2770094 -0.1884511 -0.9113164 0.1482697 -0.3840813 -0.9315509 0.1626105 -0.3252239 -0.7991091 -0.3146805 -0.5122509 -0.9081746 0.2506373 -0.3352608 -0.9111543 0.1456485 -0.3854666 -0.928664 0.2243673 -0.2953684 -0.925579 0.2859641 -0.2480482 -0.9177774 0.2868903 0.2745518 -0.9178981 0.2856691 0.2754201 -0.9143468 0.1813663 0.3620446 -0.9384292 0.1466302 0.31281 -0.9311535 0.1683419 0.3234411 -0.901751 0.1467134 0.4065961 -0.9103941 0.1680585 0.3780726 -0.912325 0.3225979 0.2521777 -0.9188216 0.2869244 0.2710005 -0.9848498 0.1048805 0.138097 -0.9578264 0.2873474 0 -0.9559739 0.2861407 -0.06509518 -0.9987523 -0.04993659 0 -0.9210147 0.2770513 -0.2738146 -0.4861897 0.1523008 -0.8604789 -0.4091901 0.1777053 -0.8949773 -0.3149025 0.1457877 -0.9378605 -0.1278769 0.1498839 -0.9803991 -0.309273 0.1512408 -0.9388697 -0.141013 0.1688628 -0.9755002 -0.1303948 0.1630746 -0.977959 -0.4837509 0.1474936 -0.8626881 -0.636475 0.163087 -0.7538581 -0.645197 0.1696269 -0.744948 -0.7708169 0.1599442 -0.6166515 -0.6459589 0.159875 -0.746443 -0.7711567 0.1450923 -0.6198915 -0.8274903 0.1763324 -0.533073 -0.8709936 0.1562899 -0.4657721 -0.9149418 0.1555567 -0.3724025 -0.7441748 0.5367867 -0.3975726 -0.9384292 0.1466302 -0.3128098 -0.9364062 0.1603595 0.3121352 -0.8722791 0.1474033 0.4662632 -0.8271023 0.1767897 0.5335236 -0.7664864 0.1686882 0.6197121 -0.8297607 0.1690638 0.5318973 -0.7716946 0.1450895 0.6192225 -0.6450954 0.1696101 0.7450398 -0.6363618 0.1663306 0.7532449 -0.64563 0.1662972 0.7453235 -0.6361207 0.1630551 0.754164 -0.4856274 0.1477051 0.8615968 -0.4099487 0.177209 0.8947284 -0.2937462 0.1736751 0.9399735 -0.4077602 0.1746891 0.8962228 -0.3145152 0.1452308 0.9380769 -0.1418845 0.1683772 0.9754577 -0.1341822 0.1666406 0.976845 -0.1389042 0.1666364 0.9761855 -0.1267469 0.1627997 0.9784843 0.1395421 0.1371724 0.980669 0.05338537 0.1733645 0.9834097 0.07274723 0.1735997 0.9821257 0.1416881 0.1761806 0.9741073 0.2381073 0.1455035 0.9602779 0.4082419 0.1680009 0.8972816 0.4154286 0.1666471 0.8942303 0.4107152 0.1666655 0.8964015 0.4143497 0.165222 0.894995 0.6486326 0.1363442 0.7487897 0.575868 0.1693211 0.7998164 0.575499 0.1693159 0.8000832 0.6442187 0.1772168 0.7440273 0.7189208 0.1454344 0.6797072 0.8300612 0.16697 0.5320899 0.8296917 0.1670521 0.5326398 0.8285282 0.1670665 0.5344434 0.8312138 0.1651425 0.5308593 0.9521918 0.1337416 0.2746708 0.9171259 0.1644181 0.3631072 0.914055 0.1643574 0.3707966 0.9438654 0.1778166 0.2783871 0.9717582 0.1459009 0.1854698 0.9860588 0.1663975 0 0.9860587 0.1663975 0 0.9860587 0.1663975 0 0.9860587 0.1663975 0 0.9500489 0.1327823 -0.2824464 0.9697747 0.1601643 -0.1840775 0.9693279 0.1601721 -0.1864089 0.9447124 0.1775989 -0.2756393 0.830715 0.1654286 -0.5315507 0.8288937 0.166745 -0.533977 0.7189707 0.1454441 -0.6796524 0.6466634 0.1530798 -0.747257 0.717962 0.1537514 -0.6788895 0.6443232 0.1772074 -0.743939 0.5763537 0.1462174 -0.8040131 0.4070715 0.1568021 -0.8998366 0.5925795 0.1567866 -0.7901059 0.4147536 0.1656929 -0.8947209 0.4098841 0.1681987 -0.8964955 0.2399455 0.1457665 -0.9597803 0.1279237 0.1474865 -0.9807565 0.2369926 0.1489789 -0.9600207 0.1408129 0.1768286 -0.9741167 0.05614864 0.1468989 -0.9875566 0.05065917 0.1469421 -0.987847 -0.1424711 -3.79589e-4 -0.9897989 -0.129338 0 -0.9916005 -0.4158082 0 -0.9094523 -0.4154945 -2.07829e-4 -0.9095956 -0.4121701 0 -0.911107 -0.6546844 0 -0.7559022 -0.6546447 -3.01789e-5 -0.7559368 -0.6543759 0 -0.7561693 -0.840663 0 -0.5415588 -0.8408741 2.12565e-4 -0.5412307 -0.8418785 0 -0.5396671 -0.9599732 0 -0.280092 -0.9596633 -5.69179e-4 -0.2811512 -0.9585365 0 -0.2849697 -1 0 0 -1 0 0 -1 0 0 -0.9591508 0 0.2828954 -0.9596631 -8.33003e-4 0.2811512 -0.9608235 0 0.2771607 -0.8403387 0 0.5420618 -0.840874 -4.25545e-4 0.5412307 -0.8418794 0 0.5396656 -0.6545795 0 0.7559933 -0.6546447 -3.46783e-5 0.7559368 -0.6547469 0 0.7558482 -0.4165412 0 0.9091168 -0.4154945 4.29833e-4 0.9095956 -0.4141279 0 0.9102187 -0.1439396 0 0.9895865 -0.142471 5.09058e-4 0.9897989 -0.1408738 0 0.9900277 0.1408738 0 0.9900277 0.142471 5.09058e-4 0.9897989 0.1439396 0 0.9895865 0.4141279 0 0.9102187 0.4154945 4.29833e-4 0.9095956 0.4165412 0 0.9091168 0.6547469 0 0.7558482 0.6546447 -3.46783e-5 0.7559368 0.6545795 0 0.7559933 0.8418794 0 0.5396656 0.840874 -4.25545e-4 0.5412307 0.8403387 0 0.5420618 0.9608235 0 0.2771607 0.9596631 -8.33003e-4 0.2811512 0.9591508 0 0.2828954 1 0 0 1 0 0 1 0 0 0.9585365 0 -0.2849697 0.9596633 -5.69179e-4 -0.2811512 0.9599732 0 -0.280092 0.8418785 0 -0.5396671 0.8408741 2.12565e-4 -0.5412307 0.840663 0 -0.5415588 0.6543759 0 -0.7561693 0.6546447 -3.01789e-5 -0.7559368 0.6546844 0 -0.7559022 0.4121701 0 -0.911107 0.4154945 -2.07829e-4 -0.9095956 0.4158082 0 -0.9094523 0.129338 0 -0.9916005 0.1424711 -3.79589e-4 -0.9897989 0.1430675 0 -0.9897129 -0.1430675 0 -0.9897129 -1 0 0 -1 0 0 -1 0 0 0 1 0 0 1 0 0 1 0 0 1 0 0 0.9838701 0.1788842 -0.007730364 0.9677938 0.2516258 -0.008649408 0.7070808 0.7070799 0.006879746 0.8947982 0.4464178 0.006871819 0.8719238 0.4895934 0.002814829 0.377206 0.9261251 -0.008792817 0.2516237 0.9677851 0 0.1293374 0.9916006 -0.9629649 0 0.269627 -0.9629649 0 0.269627 -0.251012 0.07028329 0.965429 -0.1845505 0.1845505 0.9653404 -0.07028359 0.2510112 0.9654293 -0.1942211 0.6936423 0.6936414 -0.1935422 0.6935194 0.6939541 -0.5112335 0.5112336 0.690855 -0.5112314 0.5112344 0.690856 -0.6932809 0.1941184 0.6940315 -0.7049736 0.1803423 0.6859219 -0.2607492 0.9343423 0.2429284 -0.243086 0.9349478 0.2584215 -0.682882 0.6828859 0.2594976 -0.6944488 0.6756823 0.2473751 -0.9403539 0.2405559 0.2405565 -0.9297617 0.2603295 0.2603303 -0.2516335 0.9678226 0 -0.2516335 0.9678226 0 -0.7167247 0.6973562 0 -0.7167247 0.6973562 0 -0.962965 0.2696263 0 -0.962965 0.2696263 0 -0.7167251 0 -0.6973558 -0.9629649 0 -0.269627 -0.9629649 0 -0.269627 -0.07028359 0.2510112 -0.9654293 -0.1845506 0.1845506 -0.9653404 -0.2440263 0.938564 -0.2440261 -0.2595868 0.9301772 -0.2595866 -0.6923445 0.673635 -0.2586021 -0.6852509 0.685255 -0.2466917 -0.9343009 0.2616005 -0.2421712 -0.9350127 0.2391895 -0.2618005 -0.1936007 0.6937291 -0.6937282 -0.1941202 0.693282 -0.6940299 -0.5112318 0.5112348 -0.6908552 -0.5112326 0.5112326 -0.6908563 -0.6994224 0.1789222 -0.6919503 -0.7027144 0.1967598 -0.6837237 -0.251012 0.07028329 -0.965429 0 0.1543763 -0.9880121 -0.009795784 0.2516214 -0.9677761 -0.007334709 0.722306 -0.6915347 0.00679636 0.4472005 -0.8944079 0.006780803 0.5067117 -0.8620889 -0.009076535 0.9677828 -0.2516229 0 0.9892032 -0.1465499 -0.2263051 0.7072249 0.6697902 0.3015977 0.696307 0.6513029 0.7167264 0.6973544 0 0.5183387 0.69911 -0.4925142 0.03862148 0.6995103 -0.7135781 -0.1644762 0.9669772 0.1946862 -0.1248043 0.9671578 0.2214269 0.01370066 0.9675313 0.2523798 0.06004744 0.9683741 0.2421693 0.1849305 0.9670732 0.1748434 0.1059339 0.9677575 -0.2285243 -0.1261059 0.966584 -0.2231875 -0.199501 0.9668129 -0.1596003 -0.6712515 0.704275 -0.2311238 -0.4654791 0.8727707 -0.1469718 -0.4844728 0.8612704 -0.1532949 -0.8913083 0.3450198 -0.2941612 -0.915989 0.251125 -0.3128905 -0.944593 0.09943693 -0.3128201 -0.9346077 0.1752427 0.3095133 -0.9163941 0.251105 0.3117182 -0.8494461 0.4497035 0.2760577 -0.6587777 0.7186641 0.2225626 -0.11454 0.9926847 0.03817999 -0.2079164 0.9745261 0.08408081 -0.2403051 0.9673867 0.08010166 -0.2239108 0.9672326 0.119688 -0.2239329 0.9672339 -0.1196353 -0.2369856 0.9674997 -0.08821576 -0.168695 0.984063 -0.05623167 -0.220901 0.9681158 -0.1181289 -0.195109 0.9681603 -0.1568376 -0.1642051 0.9670629 -0.194489 -0.1243403 0.9671458 -0.2217399 -0.03328311 0.9677709 -0.249623 0.01294058 0.9675522 -0.2523397 0.01371669 0.9672559 -0.2534325 0.01418453 0.9682756 -0.2494817 0.05979275 0.9683793 -0.2422114 0.1485582 0.966945 -0.2072386 0.1849181 0.9670735 -0.1748546 0.1827625 0.9676989 -0.173657 0.181624 0.9682638 -0.1716915 0.2103747 0.9683087 -0.1346127 0.2516335 0.9678226 0 0.2516335 0.9678226 0 0.2516335 0.9678227 0 0.2469634 0.9678903 -0.04687726 0.2482241 0.9675434 0.04737603 0.2343087 0.9675045 0.09504997 0.2367252 0.9670455 0.09372389 0.21423 0.9671535 0.1368191 0.1064419 0.9675605 0.2291214 0.1058055 0.9677801 0.2284879 0.1058276 0.9677543 0.2285876 0.1467888 0.9679301 0.2038734 -0.0766099 0.966454 0.245148 -0.08143335 0.9670985 0.2410164 -0.07958346 0.9681548 0.2373665 -0.03413015 0.9680389 0.2484672 -0.1947117 0.9681448 0.1574264 -0.2211804 0.9681038 0.1177042 -0.6276769 0.7031698 0.3340269 -0.6718416 0.7042246 0.2295574 -0.8316648 0.4851421 0.270131 -0.224141 0.7071188 -0.6706294 -0.08158397 0.9665949 -0.242978 -0.08118349 0.9673035 -0.240277 -0.230294 0.6945442 -0.6815959 -0.09658795 0.6949279 -0.7125629 -0.1300739 0.2494957 -0.9596003 0.05087167 0.2513077 -0.9665695 0.3019366 0.6962896 -0.6511644 0.06135189 0.9674767 -0.2454073 0.1061488 0.9675673 -0.2292293 0.3024179 0.6942894 -0.653074 0.4201316 0.6941274 -0.584531 0.5638182 0.2583763 -0.7844429 0.7015674 0.2590524 -0.6638488 0.657499 0.7065963 -0.2615662 0.6635753 0.6994388 -0.2654304 0.7016292 0.6998641 -0.133816 0.5189352 0.6991608 0.4918134 0.2101477 0.9683169 0.1349092 0.1812267 0.9682484 0.1721977 0.5147917 0.7040795 0.4891439 0.4141255 0.7046437 0.5761747 0.562515 0.2665852 0.7826297 0.4170309 0.2669032 0.8688198 0.03983807 0.6995611 0.7134614 0.01843094 0.9683725 0.2488275 0.01364505 0.9676027 0.2521088 0.03827118 0.7060714 0.7071057 -0.09523808 0.7051784 0.7026044 -0.1298174 0.2567928 0.9577082 -0.305629 0.2567279 0.916887 -0.4603919 0.7019324 0.5434429 -0.1641054 0.967066 0.194558 -0.164548 0.966937 0.1948249 -0.463243 0.6961148 0.5484799 -0.5580259 0.6967077 0.4507831 -0.8506854 0.2602313 -0.4567428 -0.2229626 0.9675791 -0.1186526 -0.6337479 0.6961472 -0.3372576 -0.6271286 0.7031058 -0.3351895 -0.8501825 0.2659004 -0.454408 -0.8554773 0.2506282 -0.4531491 -0.7517282 0.2706233 -0.6013882 -0.1978173 0.9671215 -0.159826 -0.5579887 0.6967101 -0.4508255 -0.5582559 0.6964031 -0.4509689 -0.7490752 0.2696682 -0.6051161 -0.7513393 0.2621917 -0.6055946 -0.1644515 0.9669765 -0.1947106 -0.4595423 0.7019816 -0.5440982 -0.464033 0.6961706 -0.5477408 -0.6238481 0.261821 -0.7363854 -0.621176 0.2712791 -0.7352197 -0.1242595 0.9673138 -0.221051 -0.3465486 0.7069951 -0.6164916 -0.3499536 0.7017597 -0.6205367 -0.4731478 0.2687683 -0.8389843 -0.4767771 0.2609524 -0.839397 -0.1288474 0.2567702 -0.9578452 -0.305629 0.2567279 -0.9168869 -0.3062461 0.2581284 -0.9162877 -0.3065935 0.2567667 -0.916554 -0.4726419 0.2588881 -0.8423696 0.05413478 0.2532923 -0.965874 0.05391412 0.2545722 -0.9655498 0.03948223 0.7060217 -0.7070888 -0.09333491 0.7052802 -0.7027577 -0.03303414 0.9680098 -0.2487279 -0.07829689 0.9681807 -0.2376884 0.06135183 0.9674766 -0.2454078 0.1740778 0.696309 -0.6963121 0.1739403 0.6986982 -0.6939493 0.2341818 0.2688215 -0.9342879 0.2314112 0.2534631 -0.9392579 0.5634199 0.2665578 -0.7819878 0.4170309 0.2669032 -0.8688198 0.4046592 0.2732187 -0.8726983 0.4044461 0.2603067 -0.8767347 0.2365246 0.2621741 -0.9355859 0.7046238 0.2473371 -0.6650787 0.7013934 0.2572429 -0.6647355 0.5154538 0.7040323 -0.488514 0.415661 0.7047259 -0.5749672 0.1455301 0.9686573 -0.2013059 0.15098 0.9678227 -0.2013067 0.2147524 0.9670686 -0.1366009 0.5968894 0.7068039 -0.3796725 0.6017773 0.7001448 -0.3842673 0.8154708 0.2526968 -0.5207222 0.8161497 0.2468252 -0.5224721 0.9629638 0.2696306 0 0.9449788 0.2718722 -0.1819358 0.9482918 0.2608299 -0.18086 0.9482879 0.261008 -0.1806234 0.8967889 0.2617092 -0.3567605 0.8974719 0.258296 -0.3575298 0.8130294 0.2577725 -0.5220504 0.9629638 0.2696306 0 0.9629638 0.2696306 0 0.7167264 0.6973544 0 0.70467 0.6965711 -0.1350152 0.2486808 0.9674128 -0.04764741 0.2481271 0.9675516 -0.04771661 0.9482879 0.261008 0.1806234 0.2469177 0.9678809 0.04730957 0.7014893 0.6998912 0.1344058 0.7047534 0.6966033 0.1344119 0.9482918 0.2608299 0.18086 0.9449788 0.2718721 0.1819358 0.2322279 0.9682156 0.09289127 0.6569463 0.7066604 0.2627788 0.6640112 0.699507 0.2641569 0.8976452 0.2582861 0.3571012 0.8966205 0.2616998 0.3571906 0.2123748 0.9678058 0.1350885 0.6024934 0.7000937 0.3832371 0.59627 0.7067469 0.3807505 0.8154708 0.2526969 0.5207222 0.8130294 0.2577725 0.5220504 0.5647161 0.2584066 0.7837867 0.7015674 0.2590524 0.6638488 0.7013934 0.2572429 0.6647355 0.7046238 0.2473371 0.6650787 0.8161497 0.2468252 0.5224721 0.4044461 0.2603067 0.8767347 0.4046592 0.2732187 0.8726983 0.3027438 0.6943063 0.6529051 0.4217932 0.6940296 0.5834496 0.1488554 0.9671839 0.2059057 0.1488695 0.9669557 0.2069647 0.06135171 0.9674767 0.2454074 0.1735082 0.6987219 0.6940336 0.1745008 0.6963297 0.6961856 0.2341818 0.2688215 0.9342879 0.2365246 0.2621741 0.9355859 -0.1291 0.2495277 0.9597235 0.05087167 0.2513077 0.9665695 0.05391412 0.2545722 0.9655498 0.05413478 0.2532923 0.965874 0.2314112 0.2534631 0.9392579 -0.3065935 0.2567667 0.916554 -0.3062461 0.2581284 0.9162877 -0.2280214 0.6946619 0.6822397 -0.09468263 0.6948394 0.7129049 -0.03354847 0.9669889 0.2526004 -0.03234249 0.9677872 0.2496837 -0.1255912 0.9665973 0.22342 -0.3491178 0.7017115 0.6210619 -0.3474251 0.7069473 0.616053 -0.4731478 0.2687683 0.8389843 -0.4726419 0.2588881 0.8423696 -0.8506854 0.2602313 0.4567428 -0.7513393 0.2621915 0.6055946 -0.7490752 0.2696682 0.6051161 -0.7517282 0.2706233 0.6013882 -0.6221522 0.2713071 0.7343835 -0.6228598 0.2618451 0.7372128 -0.4767771 0.2609524 0.839397 -0.8554773 0.2506282 0.4531491 -0.8501825 0.2659004 0.454408 -0.6330834 0.6962109 0.3383722 -0.5582225 0.6964006 0.4510145 -0.1946848 0.9681715 0.1572951 -0.1992351 0.9668231 0.15987 0 1 0 0 1 0 0 1 0 0 1 0 0 1 0 0 1 0 0 1 0 0 1 0 0 1 0 0 1 0 0 1 0 0 1 0 0 1 0 0 1 0 0 1 0 0 1 0 0 1 0 0 1 0 0 1 0 0 1 0 0 1 0 0 1 0 0 1 0 0 1 0 0 1 0 0 1 0 0 1 0 0 1 0 0 1 0 0 1 0 0 1 0 0 1 0 0 1 0 0 1 0 0 1 0 0 1 0 0 1 0 0 1 0 0 1 0 0 1 0 0 1 0 0 1 0 0 1 0 0 1 0 0 1 0 0 1 0 0.2576645 0 -0.9662344 -0.05074721 0 -0.9987115 -0.05074721 0 -0.9987115 -0.3301701 0 -0.9439214 -0.3301701 0 -0.9439214 0.2314149 -0.04166501 -0.9719626 0.2337992 -0.0328713 -0.9717291 -0.2353472 -0.01319801 0.9718218 0.2360719 0 -0.9717356 0.498471 0 -0.8669065 0.5025548 0.05025458 -0.8630836 0.4977039 -0.0518344 -0.8657968 0.5000953 0.04980254 -0.8645372 0.5044022 0 -0.8634689 0.7249996 0 -0.6887493 0.7241208 -0.006897449 -0.6896386 0.8897777 0 -0.4563943 0.8898923 -0.008304476 -0.4560952 0.8900858 0 -0.4557931 0.7240293 0 -0.6897691 -0.9833266 0 0.1818479 -0.9818185 -0.044227 0.1845983 0.9825241 -0.002599418 -0.1861173 0.9825702 0 -0.1858918 0.6556872 0 0.7550326 -0.6556872 0 0.7550326 -0.6515577 -0.04579263 0.7572157 -0.6516571 -0.04426085 0.7572213 -0.6510875 0 0.7590027 -0.8414006 0 0.540412 -0.8395078 -0.03620713 0.54214 -0.8394931 0 0.5433704 -0.9587494 0 0.2842525 -0.9582376 0.04984301 0.2815961 -0.9599216 0 0.2802686 -1 0 0 -1 0 0 -1 0 0 -1 0 0 -1 0 0 -1 0 0 -0.9598937 0 -0.2803642 -0.9588532 0.03467482 -0.281777 -0.9590831 0 -0.2831244 -0.8426965 0 -0.5383889 0.8393291 -0.04166615 0.5420246 0.8395044 0 0.5433529 0.6522963 0 0.757964 0.6490944 0.0781871 0.7566791 0.6515577 0.04579263 0.7572157 0.8899229 0 0.4561109 0.9838697 0 0.1788867 0.9821668 0.01870387 0.187079 0.9826549 -0.003704786 0.1854068 0.9822553 -0.03267395 0.1846804 0.9842713 0 0.1766641 0.8899229 0 0.4561109 0.7249996 0 0.6887493 0.7241208 -0.006897449 0.6896386 0.7232667 0.02902907 0.6899583 0.7348049 0 0.6782786 0.5044022 0 0.8634689 0.4990119 0.0604375 0.864485 0.5005733 0.02391499 0.8653637 0.498471 0 0.8669065 0.2360719 0 0.9717356 0.2353472 0.01319825 0.9718218 0.2337992 -0.03287124 0.9717291 0.2314148 -0.04166501 0.9719625 0.2576645 0 0.9662344 -0.05074721 0 0.9987115 -0.05074721 0 0.9987115 -0.3301701 0 0.9439214 0.3301701 0 -0.9439214 0 -1 0 0 -1 0 0 -1 0 0 0.03485059 -0.9993925 0.9993925 0.03485059 0 1 0 0 0 0 -1 -0.260666 0 0.9654291 -0.9654291 0 -0.260666 -0.9654291 0 -0.260666 -0.260666 0 -0.9654291 -0.9645484 0.04270619 -0.2604277 -0.9646556 0.04270696 -0.2600302 0.9654291 0 -0.260666 0.2604277 0.04270619 -0.9645484 0.7071068 0 0.7071068 0.2689354 0.9604846 -0.07171601 0.2758985 0.9581687 -0.07611 0.2031767 0.95783 -0.2031767 0.2031767 0.95783 -0.2031767 0.07389479 0.9579936 -0.2771059 0.07417577 0.9603113 -0.2688869 0.6940287 0.6940234 -0.1914564 0.6821739 0.707958 -0.1828504 0.4946855 0.7145437 -0.4946855 0.4946855 0.7145437 -0.4946855 0.1876068 0.7087336 -0.6800739 0.1862189 0.6947355 -0.694741 0.9324051 0.2610736 -0.2499225 0.9336825 0.2543331 -0.2520944 0.6852533 0.2466892 -0.6852533 0.6852534 0.2466892 -0.6852534 0.2503941 0.2542446 -0.9341641 0.2516342 0.2609541 -0.9319781 0 0 0 0 0.7071041 -0.7071095 0 0.7071041 -0.7071095 0 0.2696301 -0.9629639 0 0.2696301 -0.9629639 0.2696297 0.9629641 0 0.2696297 0.9629641 0 0.2696297 0.9629641 0 0.7071095 0.7071041 0 0.7071095 0.7071041 0 0.9629639 0.2696301 0 0.9629639 0.2696301 0 -0.07611 0.9581687 -0.2758985 -0.2031767 0.95783 -0.2031767 -0.2031767 0.95783 -0.2031767 -0.2771059 0.9579936 -0.07389479 -0.2688869 0.9603113 -0.07417577 -0.1914564 0.6940234 -0.6940287 -0.1828504 0.7079579 -0.6821739 -0.4946855 0.7145437 -0.4946855 -0.4946855 0.7145437 -0.4946855 -0.6800737 0.7087335 -0.1876068 -0.694741 0.6947355 -0.1862189 -0.2499225 0.2610736 -0.9324051 -0.2520944 0.2543331 -0.9336825 -0.6852533 0.2466892 -0.6852533 -0.6852534 0.2466892 -0.6852534 -0.9341641 0.2542446 -0.2503941 -0.9319781 0.2609541 -0.2516342 0.07171601 0.9604846 0.2689354 0.07611 0.9581687 0.2758985 0.2031767 0.95783 0.2031767 0.2031767 0.95783 0.2031767 0.2771059 0.9579936 0.07389479 0.2688869 0.9603113 0.07417577 0.1914564 0.6940234 0.6940287 0.1828504 0.7079579 0.6821739 0.4946855 0.7145437 0.4946855 0.4946855 0.7145437 0.4946855 0.6800737 0.7087335 0.1876068 0.694741 0.6947355 0.1862189 0.2499225 0.2610736 0.9324051 0.2520944 0.2543331 0.9336825 0.6852533 0.2466892 0.6852533 0.6852534 0.2466892 0.6852534 0.9341641 0.2542446 0.2503941 0.9319781 0.2609541 0.2516342 -0.2696297 0.9629641 0 -0.2696297 0.9629641 0 -0.2696297 0.9629641 0 -0.7071095 0.7071041 0 -0.7071095 0.7071041 0 -0.9629639 0.2696301 0 -0.9629639 0.2696301 0 0 0.9629641 0.2696297 0 0.9629641 0.2696297 0 0.9629641 0.2696297 0 0.7071041 0.7071095 0 0.7071041 0.7071095 0 0.2696301 0.9629639 0 0.2696301 0.9629639 -0.2689354 0.9604846 0.07171601 -0.2758985 0.9581687 0.07611 -0.2031767 0.95783 0.2031767 -0.2031767 0.95783 0.2031767 -0.07389479 0.9579936 0.2771059 -0.07417577 0.9603113 0.2688869 -0.6940287 0.6940234 0.1914564 -0.6821739 0.707958 0.1828504 -0.4946855 0.7145437 0.4946855 -0.4946855 0.7145437 0.4946855 -0.1876068 0.7087336 0.6800739 -0.1862189 0.6947355 0.694741 -0.9324051 0.2610736 0.2499225 -0.9336825 0.2543331 0.2520944 -0.6852533 0.2466892 0.6852533 -0.6852534 0.2466892 0.6852534 -0.2503941 0.2542446 0.9341641 -0.2516342 0.2609541 0.9319781 -0.9629639 0 -0.2696301 -0.9629639 0 -0.2696301 -0.7167251 0 -0.6973558 -0.7167237 -2.52567e-7 -0.6973572 -0.2516344 0 -0.9678224 -0.2516335 0 -0.9678226 -0.2516344 0 -0.9678224 -0.2516344 0 0.9678224 -0.2516344 0 0.9678224 -0.7167251 0 0.6973558 -0.7167251 0 0.6973558 -0.9629639 0 0.2696301 -0.9629639 0 0.2696301 -1 0 0 -1 0 0 0 0 1 0 0 -1 0 0 -1 -1 0 0 -1 0 0 -0.9122474 0 0.4096398 -0.8835567 -0.01679629 -0.4680228 -0.957763 0.01149314 -0.2873293 -0.957763 0.01149314 0.2873293 -0.8835567 -0.01679629 0.4680228 -0.9086417 0.007449328 0.4175103 -0.881016 0.007450222 0.4730277 -0.8049004 -0.01266139 0.5932749 -0.9122221 0.007446944 -0.4096284 -0.901296 0 -0.4332039 0 0 1 0 0 1 0 0 -1 0 0 -1 0 0 -1 -0.9190827 0.28875 -0.2681613 -0.9068856 0.3034356 -0.292379 -0.9189138 0.2091057 0.3344731 0.9175001 0.1444488 -0.3705781 0.8302804 0.1654177 -0.5322325 0 1 0 0 1 0 0 1 0 0 1 0 0 1 0 0 0 1 0 1 0 0 1 0 0 1 0 0 1 0 0 1 0 -0.2516344 0 0.9678224 0.002348303 0.6348381 0.7726417 -0.7167251 0 0.6973558 -0.7167251 0 0.6973558 -0.2516344 0 0.9678224 -0.2516344 0 0.9678224 -0.2516344 0 -0.9678224 -0.2516344 0 -0.9678224 -0.7167251 0 -0.6973558 -0.004324674 0.7071006 -0.7070997 0.003669202 0.9127396 -0.4085254 0.2344187 0.967514 -0.09468168 -0.7256583 0.6450302 -0.2394912 -0.3975354 0.9086532 0.1277299 0.2290577 0.9690912 -0.09162318 0 -1 0 0 -1 0 0 -1 0 0 -1 0 0 -1 0 0 -1 0 0 0 0 0 0 0 0 -1 0 0 -1 0 0 -1 0 0 -1 0 0 -1 0 0 -1 0 0 -1 0 0 0 0 0 0 0 0 0.03485059 -0.9993925 0.9993925 0.03485059 0 -0.9993925 0.03485059 0 -0.9993925 0.03485059 0 0 0 1 0 0 1 1 0 0 0 0 -1 -1 0 0 -1 0 0 -0.7071068 0 0.7071068 -0.7071068 0 0.7071068 -0.260666 0 0.9654291 -0.9654291 0 0.260666 -0.9654291 0 0.260666 -0.9646556 0.04270696 0.2600302 -0.9645484 0.04270619 0.2604277 -0.706249 0.04924374 0.7062489 -0.7062489 0.04924374 0.7062489 -0.2604277 0.04270619 0.9645484 -0.2600302 0.04270696 0.9646556 -0.7071068 0 -0.7071068 -0.7071068 0 -0.7071068 -0.260666 0 -0.9654291 -0.2600301 0.04270696 -0.9646555 -0.2604277 0.04270619 -0.9645484 -0.7062489 0.04924374 -0.706249 -0.7062489 0.04924374 -0.7062489 0.260666 0 -0.9654291 0.7071068 0 -0.7071068 0.7071068 0 -0.7071068 0.260666 0 -0.9654291 0.9654291 0 -0.260666 0.9646556 0.04270696 -0.2600302 0.9645484 0.04270619 -0.2604277 0.706249 0.04924374 -0.7062489 0.7062489 0.04924374 -0.7062489 0.2600302 0.04270696 -0.9646556 0.2604278 0.04270619 0.9645484 0.2600301 0.04270696 0.9646556 0.9645479 0.04271709 0.2604277 0.964656 0.04269605 0.2600303 0.7062489 0.04924374 0.7062489 0.706249 0.04924374 0.7062489 0.7071068 0 0.7071068 0.9654291 0 0.260666 0.9654291 0 0.260666 0.260666 0 0.9654291 0.260666 0 0.9654291 0 0 0 0 0 0 -1.5404e-7 1 -6.36081e-7 3.24032e-7 1 5.61656e-7 6.54708e-7 1 0 -6.48629e-7 1 0 -5.82531e-7 1 2.98564e-7 4.26935e-7 1 4.96095e-7 -3.27791e-7 1 5.66667e-7 6.28108e-7 1 1.84581e-7 -1.5404e-7 1 6.36081e-7 5.49908e-7 1 -3.55121e-7 5.49908e-7 1 3.55121e-7 -4.74061e-7 1 -4.51486e-7 0 1 6.53629e-7 2.16121e-7 1 -6.17868e-7 3.24032e-7 1 -5.61656e-7 -5.82531e-7 1 -2.98564e-7 -4.74061e-7 1 4.51486e-7 4.26935e-7 1 -4.96095e-7 -3.27791e-7 1 -5.66667e-7 -6.43363e-7 1 1.20963e-7 2.16121e-7 1 6.17868e-7 6.28108e-7 1 -1.84581e-7 -6.43363e-7 1 -1.20963e-7 0 1 -6.53629e-7 0 0.9629641 -0.2696297 0 0.9629641 -0.2696297 0 0 0 0 0 0 0 0 0 0 0 0 0 0 0 0 0 0 -0.1872387 -0.9823144 0 0 0 0 0 0 0 0 0 0 0 0 0 0 0 0 0 0 0 0 0 0 0 0 0 0 0 0 0 0 0 0 0 0 0 0 0 0 0 0 0 0 0 0 0 0 0 0 0 0 0 0 0 0 0 0 0 0 0 0 0 0 0 0 0 0 0 0 0 0 0 0 0 0 0 0 0 0 0 0 0 0 0 0 0 0 0 0 0 0 0 0 0 0 0 0 0 0 0 0 0 0 0 0 0 0 0 0 0 0 0 0 0 0 0 0 0 0 0 0 0 0 0 0 0 0 0 0 0 0 0 0 0 0 0 0 0 0 0 0 0 0 0 0 0 0 0 0 0 0 0 0 0 0 0 0 0 0 0 0 0 0 0 0 0 0 0 0 0 0 0 0 0 0 0 -0.1364855 -0.9817008 -0.1327975 0 0 0 0 0 0 0 0 0 0 0 0 0 0 0 0 0 0 0 0 0 0 0 0 0 0 0 0 0 0 0 0 0 0 0 0 0 0 0 0 0 0 0 0 0 0 0 0 0 0 0 0 0 0 0 0 0 0 0 0 0 0 0 0 0 0 0 0 0 0 0 0 0 0 0 0 0 0 0 0 0 0 0 0 0 0 0 0 0 0 0 0 0 0 0 0 0 0 0 -0.08765232 -0.9373711 -0.3371237 0 0 0 0 0 0 0 0 0 0 0 0 0 0 0 0 0 0 0 0 0 0 0 0 -0.1734797 -0.9848374 0 0 0 0 0 0 0 0 0 0 -0.1734797 -0.9848374 0 0 0 0 0 0 0 0 0.9629641 -0.2696297 0 0 0 -0.07171601 0.9604846 -0.2689354 -0.08764123 -0.9899891 0.1106374 0.07545632 -0.9970984 0.01005166 -0.165484 -0.9851234 -0.04633498 0.06710433 -0.9963871 -0.05205571 -0.01855289 -0.9915714 -0.1282264 -0.1596735 -0.9861569 0.0447086 0.01166564 -0.9952132 0.09702873 0.1506127 0.98234 0.1110134 0.01357448 -0.9934884 -0.1131218 0 0 0 -0.1199531 -0.9858954 0.1167114 0.0334047 -0.9960209 0.08262425 0.07395762 -0.9967855 -0.03080356 -0.1550459 -0.986953 0.04341232 -0.04902708 -0.9923275 0.1135011 -0.05939245 -0.9717465 0.2284322 0.01359909 -0.9934894 -0.1131098 0 0 0 -0.1297165 -0.9869306 0.09561127 0.05006933 -0.9965522 0.06615769 0.07658731 -0.9970107 -0.01020228 -0.1044685 -0.9857454 -0.1318801 0.1044685 0.9857454 0.1318801 0 -0.9662557 0.2575849 -0.01562213 -0.9940313 0.1079711 -0.1443563 -0.9795069 -0.1404551 0.03801149 -0.9948446 -0.09401881 0.06233876 -0.9968829 0.04835891 -0.05876457 -0.9889584 -0.136044 -0.05089199 -0.9793348 0.195738 0.01164436 -0.9952126 0.09703755 -0.1872387 -0.9823144 0 0.05545455 -0.995769 -0.0732733 -0.1144365 -0.9871711 0.1113438 0.07075601 -0.9970582 0.02947002 -0.1506127 -0.98234 -0.1110134 0.05876457 0.9889584 0.136044 -0.1603716 -0.9844262 0.07201397 -0.01855289 -0.9915714 -0.1282265 0 0.03485065 0.9993925 0 0.03485059 0.9993926 0 0.03485053 0.9993925 0 0.03485059 0.9993926 0 1 0 0 1 0 0 1 0 0 1 0 0 1 0 0 1 0 0 1 0 0 1 0 0 1 0 0 1 0 0 1 0 0 1 0 0 1 0 0 1 0 0 1 0 0 1 0 0 1 0 0 1 0 0 1 0 0 1 0 -0.1707559 -0.9841526 -0.04781168 0.070692 0.9597275 0.2718927 0 0 0 0 0 0 0 0 0 0 0 0 0 0 0 0 0 0 0.1790391 0.9805517 0.08039653 -0.1790391 -0.9805517 -0.08039653 0 -0.9156407 -0.4019977</float_array>
          <technique_common>
            <accessor source="#Mesh-mesh-normals-array" count="1139" stride="3">
              <param name="X" type="float"/>
              <param name="Y" type="float"/>
              <param name="Z" type="float"/>
            </accessor>
          </technique_common>
        </source>
        <vertices id="Mesh-mesh-vertices">
          <input semantic="POSITION" source="#Mesh-mesh-positions"/>
        </vertices>
        <polylist material="black-material" count="937">
          <input semantic="VERTEX" source="#Mesh-mesh-vertices" offset="0"/>
          <input semantic="NORMAL" source="#Mesh-mesh-normals" offset="1"/>
          <vcount>3 3 3 3 3 3 3 3 3 3 3 3 3 3 3 3 3 3 3 3 3 3 3 3 3 3 3 3 3 3 3 3 3 3 3 3 3 3 3 3 3 3 3 3 3 3 3 3 3 3 3 3 3 3 3 3 3 3 3 3 3 3 3 3 3 3 3 3 3 3 3 3 3 3 3 3 3 3 3 3 3 3 3 3 3 3 3 3 3 3 3 3 3 3 3 3 3 3 3 3 3 3 3 3 3 3 3 3 3 3 3 3 3 3 3 3 3 3 3 3 3 3 3 3 3 3 3 3 3 3 3 3 3 3 3 3 3 3 3 3 3 3 3 3 3 3 3 3 3 3 3 3 3 3 3 3 3 3 3 3 3 3 3 3 3 3 3 3 3 3 3 3 3 3 3 3 3 3 3 3 3 3 3 3 3 3 3 3 3 3 3 3 3 3 3 3 3 3 3 3 3 3 3 3 3 3 3 3 3 3 3 3 3 3 3 3 3 3 3 3 3 3 3 3 3 3 3 3 3 3 3 3 3 3 3 3 3 3 3 3 3 3 3 3 3 3 3 3 3 3 3 3 3 3 3 3 3 3 3 3 3 3 3 3 3 3 3 3 3 3 3 3 3 3 3 3 3 3 3 3 3 3 3 3 3 3 3 3 3 3 3 3 3 3 3 3 3 3 3 3 3 3 3 3 3 3 3 3 3 3 3 3 3 3 3 3 3 3 3 3 3 3 3 3 3 3 3 3 3 3 3 3 3 3 3 3 3 3 3 3 3 3 3 3 3 3 3 3 3 3 3 3 3 3 3 3 3 3 3 3 3 3 3 3 3 3 3 3 3 3 3 3 3 3 3 3 3 3 3 3 3 3 3 3 3 3 3 3 3 3 3 3 3 3 3 3 3 3 3 3 3 3 3 3 3 3 3 3 3 3 3 3 3 3 3 3 3 3 3 3 3 3 3 3 3 3 3 3 3 3 3 3 3 3 3 3 3 3 3 3 3 3 3 3 3 3 3 3 3 3 3 3 3 3 3 3 3 3 3 3 3 3 3 3 3 3 3 3 3 3 3 3 3 3 3 3 3 3 3 3 3 3 3 3 3 3 3 3 3 3 3 3 3 3 3 3 3 3 3 3 3 3 3 3 3 3 3 3 3 3 3 3 3 3 3 3 3 3 3 3 3 3 3 3 3 3 3 3 3 3 3 3 3 3 3 3 3 3 3 3 3 3 3 3 3 3 3 3 3 3 3 3 3 3 3 3 3 3 3 3 3 3 3 3 3 3 3 3 3 3 3 3 3 3 3 3 3 3 3 3 3 3 3 3 3 3 3 3 3 3 3 3 3 3 3 3 3 3 3 3 3 3 3 3 3 3 3 3 3 3 3 3 3 3 3 3 3 3 3 3 3 3 3 3 3 3 3 3 3 3 3 3 3 3 3 3 3 3 3 3 3 3 3 3 3 3 3 3 3 3 3 3 3 3 3 3 3 3 3 3 3 3 3 3 3 3 3 3 3 3 3 3 3 3 4 3 3 3 3 3 3 3 3 3 3 3 3 3 3 3 3 3 3 3 3 3 3 3 3 3 3 3 3 3 3 3 3 3 3 3 3 3 3 3 3 3 3 3 3 3 3 3 3 3 3 3 3 3 3 3 3 3 3 3 3 3 3 3 3 3 3 4 4 4 4 4 4 3 3 3 3 3 3 3 3 3 3 3 3 3 3 3 3 3 3 3 3 3 3 3 3 4 4 4 4 4 4 3 4 4 4 4 4 4 4 4 4 4 4 4 4 4 4 4 4 4 4 4 4 4 4 4 4 4 4 4 4 4 4 4 4 4 4 4 4 4 4 4 4 4 4 4 4 4 4 4 4 4 4 4 4 4 4 4 4 4 3 4 4 4 4 4 4 4 4 4 4 4 4 4 4 4 4 4 4 4 4 4 4 4 4 4 4 4 4 4 4 4 4 4 3 4 4 4 4 4 4 4 3 3 3 3 3 3 3 3 3 3 3 3 3 3 3 3 3 3 3 3 3 3 3 3 3 3 3 3 3 3 3 3 3 3 3 3 3 3 3 3 3 3 3 3 3 3 3 3 3 3 3 3 3 3 3 3 3 3 3 </vcount>
          <p>376 0 371 0 375 0 325 1 326 1 329 1 161 2 75 2 120 2 122 3 76 3 284 3 277 4 404 4 278 4 278 5 404 5 280 5 280 6 404 6 406 6 280 7 406 7 282 7 408 8 275 8 406 8 406 9 275 9 281 9 406 10 281 10 282 10 410 11 259 11 408 11 408 12 259 12 266 12 408 13 266 13 275 13 414 14 263 14 264 14 414 15 264 15 412 15 412 16 264 16 262 16 412 17 262 17 410 17 410 18 262 18 260 18 410 19 260 19 259 19 263 20 414 20 257 20 257 21 414 21 416 21 257 22 416 22 248 22 248 23 416 23 241 23 241 24 416 24 418 24 241 25 418 25 242 25 420 26 246 26 418 26 418 27 246 27 244 27 418 28 244 28 242 28 230 29 234 29 423 29 423 30 234 30 239 30 423 31 239 31 420 31 420 32 239 32 245 32 420 33 245 33 246 33 230 34 423 34 229 34 229 35 423 35 422 35 229 36 422 36 221 36 221 37 422 37 214 37 214 38 422 38 421 38 214 39 421 39 215 39 215 40 421 40 217 40 217 41 421 41 419 41 217 42 419 42 219 42 417 43 212 43 419 43 419 44 212 44 218 44 419 45 218 45 219 45 199 46 197 46 415 46 415 47 197 47 196 47 415 48 196 48 417 48 417 49 196 49 203 49 417 50 203 50 212 50 199 51 415 51 201 51 201 52 415 52 413 52 201 53 413 53 200 53 200 54 413 54 194 54 194 55 413 55 411 55 194 56 411 56 185 56 185 57 411 57 409 57 185 58 409 58 178 58 178 59 409 59 407 59 178 60 407 60 179 60 405 61 183 61 407 61 407 62 183 62 181 62 407 63 181 63 179 63 167 64 171 64 403 64 403 65 171 65 176 65 403 66 176 66 405 66 405 67 176 67 182 67 405 68 182 68 183 68 167 69 403 69 166 69 166 70 403 70 402 70 166 71 402 71 162 71 84 72 76 72 122 72 122 73 123 73 84 73 84 74 123 74 150 74 84 75 150 75 151 75 151 76 124 76 84 76 126 77 125 77 84 77 84 78 125 78 27 78 84 79 27 79 82 79 118 80 117 80 107 80 107 81 106 81 28 81 120 82 107 82 121 82 121 83 107 83 119 83 118 84 107 84 130 84 130 85 107 85 28 85 130 86 28 86 129 86 41 87 40 87 127 87 31 88 30 88 173 88 114 89 74 89 36 89 28 90 106 90 34 90 108 91 35 91 110 91 110 92 35 92 34 92 110 93 34 93 109 93 109 94 34 94 106 94 108 95 111 95 35 95 36 96 116 96 114 96 78 97 40 97 80 97 80 98 40 98 79 98 40 99 81 99 83 99 125 100 127 100 27 100 27 101 127 101 40 101 27 102 40 102 82 102 82 103 40 103 83 103 79 104 40 104 77 104 77 105 40 105 39 105 77 106 39 106 73 106 73 107 39 107 38 107 73 108 38 108 74 108 74 109 38 109 37 109 74 110 37 110 36 110 173 111 30 111 152 111 152 112 30 112 29 112 152 113 29 113 188 113 188 114 29 114 71 114 188 115 71 115 190 115 190 116 71 116 72 116 190 117 72 117 134 117 173 118 133 118 31 118 31 119 133 119 169 119 31 120 169 120 32 120 32 121 169 121 164 121 32 122 164 122 33 122 33 123 164 123 132 123 33 124 132 124 34 124 34 125 132 125 159 125 34 126 159 126 28 126 28 127 159 127 131 127 28 128 131 128 129 128 127 129 128 129 41 129 41 130 128 130 148 130 41 131 148 131 42 131 42 132 148 132 291 132 42 133 291 133 43 133 43 134 291 134 289 134 43 135 289 135 44 135 44 136 289 136 158 136 44 137 158 137 45 137 158 138 157 138 45 138 45 139 157 139 272 139 45 140 272 140 46 140 46 141 272 141 146 141 46 142 146 142 47 142 47 143 146 143 147 143 47 144 147 144 48 144 48 145 147 145 271 145 48 146 271 146 49 146 49 147 271 147 269 147 49 148 269 148 50 148 269 149 156 149 50 149 50 150 156 150 155 150 50 151 155 151 51 151 51 152 155 152 254 152 51 153 254 153 52 153 52 154 254 154 144 154 52 155 144 155 53 155 53 156 144 156 145 156 53 157 145 157 54 157 145 158 253 158 54 158 54 159 253 159 251 159 54 160 251 160 55 160 55 161 251 161 154 161 55 162 154 162 56 162 56 163 154 163 236 163 56 164 236 164 57 164 57 165 236 165 143 165 57 166 143 166 58 166 143 167 232 167 58 167 58 168 232 168 142 168 58 169 142 169 59 169 59 170 142 170 227 170 59 171 227 171 60 171 60 172 227 172 140 172 60 173 140 173 61 173 61 174 140 174 141 174 61 175 141 175 62 175 141 176 226 176 62 176 62 177 226 177 224 177 62 178 224 178 63 178 64 179 209 179 139 179 64 180 139 180 65 180 65 181 139 181 138 181 65 182 138 182 66 182 66 183 138 183 137 183 66 184 137 184 67 184 67 185 137 185 208 185 67 186 208 186 68 186 208 187 206 187 68 187 68 188 206 188 153 188 68 189 153 189 69 189 69 190 153 190 191 190 69 191 191 191 70 191 70 192 191 192 136 192 70 193 136 193 72 193 72 194 136 194 135 194 72 195 135 195 134 195 71 196 308 196 309 196 71 197 29 197 308 197 308 198 29 198 30 198 308 199 30 199 292 199 30 200 31 200 292 200 292 201 31 201 32 201 292 202 32 202 307 202 32 203 33 203 307 203 307 204 33 204 34 204 307 205 34 205 306 205 34 206 35 206 306 206 306 207 35 207 36 207 306 208 36 208 305 208 36 209 37 209 305 209 305 210 37 210 38 210 305 211 38 211 304 211 38 212 39 212 304 212 304 213 39 213 40 213 304 214 40 214 303 214 40 215 41 215 303 215 303 216 41 216 42 216 303 217 42 217 302 217 42 218 43 218 302 218 302 219 43 219 44 219 302 220 44 220 301 220 44 221 45 221 301 221 301 222 45 222 46 222 301 223 46 223 293 223 46 224 47 224 293 224 293 225 47 225 48 225 293 226 48 226 294 226 48 227 49 227 294 227 294 228 49 228 50 228 294 229 50 229 295 229 50 230 51 230 295 230 295 231 51 231 52 231 295 232 52 232 296 232 52 233 53 233 296 233 296 234 53 234 54 234 296 235 54 235 297 235 54 236 55 236 297 236 297 237 55 237 56 237 297 238 56 238 298 238 56 239 57 239 298 239 298 240 57 240 58 240 298 241 58 241 299 241 58 242 59 242 299 242 299 243 59 243 60 243 299 244 60 244 300 244 60 245 61 245 300 245 300 246 61 246 62 246 300 247 62 247 313 247 62 248 63 248 313 248 313 249 63 249 64 249 313 250 64 250 312 250 64 251 65 251 312 251 312 252 65 252 66 252 312 253 66 253 311 253 66 254 67 254 311 254 311 255 67 255 68 255 311 256 68 256 310 256 68 257 69 257 310 257 310 258 69 258 70 258 310 259 70 259 309 259 309 260 70 260 72 260 309 261 72 261 71 261 399 262 95 262 398 262 398 263 95 263 99 263 398 264 99 264 397 264 93 265 77 265 73 265 93 266 73 266 115 266 115 267 73 267 74 267 115 268 74 268 114 268 77 269 93 269 79 269 79 270 93 270 89 270 85 271 78 271 89 271 89 272 78 272 80 272 89 273 80 273 79 273 81 274 85 274 83 274 83 275 85 275 84 275 83 276 84 276 82 276 95 277 399 277 401 277 95 278 401 278 92 278 84 279 87 279 88 279 86 280 87 280 84 280 85 281 86 281 84 281 85 282 89 282 86 282 86 283 89 283 90 283 86 284 90 284 87 284 87 285 90 285 91 285 87 286 91 286 88 286 88 287 91 287 92 287 89 288 93 288 90 288 90 289 93 289 94 289 90 290 94 290 91 290 91 291 94 291 96 291 91 292 96 292 92 292 92 293 96 293 95 293 93 294 115 294 97 294 93 295 97 295 94 295 94 296 97 296 98 296 94 297 98 297 96 297 96 298 98 298 99 298 96 299 99 299 95 299 105 300 400 300 103 300 103 301 400 301 397 301 103 302 397 302 99 302 101 303 112 303 107 303 101 304 107 304 104 304 115 305 113 305 97 305 97 306 113 306 100 306 97 307 100 307 98 307 98 308 100 308 102 308 98 309 102 309 99 309 99 310 102 310 103 310 113 311 112 311 100 311 100 312 112 312 101 312 100 313 101 313 102 313 102 314 101 314 104 314 102 315 104 315 103 315 103 316 104 316 105 316 105 317 104 317 107 317 106 318 107 318 109 318 109 319 107 319 112 319 111 320 108 320 112 320 112 321 108 321 110 321 112 322 110 322 109 322 116 323 113 323 115 323 116 324 115 324 114 324 268 325 274 325 276 325 250 326 256 326 258 326 223 327 228 327 231 327 205 328 211 328 213 328 187 329 193 329 195 329 158 330 289 330 290 330 272 331 157 331 273 331 156 332 269 332 270 332 254 333 155 333 255 333 154 334 251 334 252 334 153 335 206 335 207 335 173 336 152 336 174 336 164 337 169 337 170 337 163 338 117 338 160 338 160 339 117 339 118 339 160 340 118 340 130 340 119 341 163 341 121 341 121 342 163 342 161 342 121 343 161 343 120 343 122 344 284 344 123 344 123 345 284 345 286 345 123 346 286 346 150 346 149 347 124 347 151 347 125 348 126 348 127 348 127 349 126 349 149 349 127 350 149 350 128 350 128 351 149 351 148 351 159 352 160 352 131 352 131 353 160 353 130 353 131 354 130 354 129 354 159 355 132 355 165 355 165 356 132 356 164 356 169 357 133 357 175 357 175 358 133 358 173 358 190 359 134 359 187 359 187 360 134 360 135 360 187 361 135 361 193 361 193 362 135 362 136 362 193 363 136 363 191 363 208 364 137 364 205 364 205 365 137 365 138 365 205 366 138 366 211 366 211 367 138 367 139 367 211 368 139 368 209 368 227 369 228 369 140 369 140 370 228 370 223 370 140 371 223 371 141 371 141 372 223 372 226 372 227 373 142 373 233 373 233 374 142 374 232 374 232 375 143 375 238 375 238 376 143 376 236 376 254 377 256 377 144 377 144 378 256 378 250 378 144 379 250 379 145 379 145 380 250 380 253 380 272 381 274 381 146 381 146 382 274 382 268 382 146 383 268 383 147 383 147 384 268 384 271 384 291 385 148 385 288 385 288 386 148 386 149 386 288 387 149 387 286 387 286 388 149 388 151 388 286 389 151 389 150 389 180 390 184 390 174 390 152 391 188 391 174 391 174 392 188 392 189 392 174 393 189 393 180 393 180 394 189 394 186 394 180 395 186 395 178 395 178 396 186 396 185 396 198 397 202 397 192 397 191 398 153 398 192 398 192 399 153 399 207 399 192 400 207 400 198 400 198 401 207 401 204 401 198 402 204 402 196 402 196 403 204 403 203 403 216 404 220 404 210 404 210 405 225 405 216 405 216 406 225 406 222 406 243 407 247 407 237 407 236 408 154 408 237 408 237 409 154 409 252 409 237 410 252 410 243 410 243 411 252 411 249 411 243 412 249 412 241 412 241 413 249 413 248 413 261 414 265 414 255 414 155 415 156 415 255 415 255 416 156 416 270 416 255 417 270 417 261 417 261 418 270 418 267 418 261 419 267 419 259 419 259 420 267 420 266 420 279 421 283 421 273 421 157 422 158 422 273 422 273 423 158 423 290 423 273 424 290 424 279 424 279 425 290 425 287 425 168 426 166 426 162 426 159 427 165 427 160 427 160 428 165 428 168 428 160 429 168 429 163 429 163 430 168 430 162 430 163 431 162 431 161 431 172 432 171 432 167 432 164 433 170 433 165 433 165 434 170 434 172 434 165 435 172 435 168 435 168 436 172 436 167 436 168 437 167 437 166 437 169 438 175 438 170 438 170 439 175 439 177 439 170 440 177 440 172 440 172 441 177 441 176 441 172 442 176 442 171 442 173 443 174 443 175 443 175 444 174 444 184 444 175 445 184 445 177 445 177 446 184 446 182 446 177 447 182 447 176 447 178 448 179 448 180 448 180 449 179 449 181 449 180 450 181 450 184 450 184 451 181 451 183 451 184 452 183 452 182 452 194 453 185 453 195 453 195 454 185 454 186 454 195 455 186 455 187 455 187 456 186 456 189 456 187 457 189 457 190 457 190 458 189 458 188 458 191 459 192 459 193 459 193 460 192 460 202 460 193 461 202 461 195 461 195 462 202 462 200 462 195 463 200 463 194 463 196 464 197 464 198 464 198 465 197 465 199 465 198 466 199 466 202 466 202 467 199 467 201 467 202 468 201 468 200 468 212 469 203 469 213 469 213 470 203 470 204 470 213 471 204 471 205 471 205 472 204 472 207 472 205 473 207 473 208 473 208 474 207 474 206 474 209 475 210 475 211 475 211 476 210 476 220 476 211 477 220 477 213 477 213 478 220 478 218 478 213 479 218 479 212 479 221 480 214 480 222 480 222 481 214 481 215 481 222 482 215 482 216 482 216 483 215 483 217 483 216 484 217 484 220 484 220 485 217 485 219 485 220 486 219 486 218 486 229 487 221 487 231 487 231 488 221 488 222 488 231 489 222 489 223 489 223 490 222 490 225 490 223 491 225 491 226 491 226 492 225 492 224 492 235 493 234 493 230 493 227 494 233 494 228 494 228 495 233 495 235 495 228 496 235 496 231 496 231 497 235 497 230 497 231 498 230 498 229 498 232 499 238 499 233 499 233 500 238 500 240 500 233 501 240 501 235 501 235 502 240 502 239 502 235 503 239 503 234 503 236 504 237 504 238 504 238 505 237 505 247 505 238 506 247 506 240 506 240 507 247 507 245 507 240 508 245 508 239 508 241 509 242 509 243 509 243 510 242 510 244 510 243 511 244 511 247 511 247 512 244 512 246 512 247 513 246 513 245 513 257 514 248 514 258 514 258 515 248 515 249 515 258 516 249 516 250 516 250 517 249 517 252 517 250 518 252 518 253 518 253 519 252 519 251 519 254 520 255 520 256 520 256 521 255 521 265 521 256 522 265 522 258 522 258 523 265 523 263 523 258 524 263 524 257 524 259 525 260 525 261 525 261 526 260 526 262 526 261 527 262 527 265 527 265 528 262 528 264 528 265 529 264 529 263 529 275 530 266 530 276 530 276 531 266 531 267 531 276 532 267 532 268 532 268 533 267 533 270 533 268 534 270 534 271 534 271 535 270 535 269 535 272 536 273 536 274 536 274 537 273 537 283 537 274 538 283 538 276 538 276 539 283 539 281 539 276 540 281 540 275 540 285 541 277 541 287 541 287 542 277 542 278 542 287 543 278 543 279 543 279 544 278 544 280 544 279 545 280 545 283 545 283 546 280 546 282 546 283 547 282 547 281 547 284 548 285 548 286 548 286 549 285 549 287 549 286 550 287 550 288 550 288 551 287 551 290 551 288 552 290 552 291 552 291 553 290 553 289 553 301 554 293 554 389 554 308 555 292 555 363 555 363 556 292 556 307 556 389 557 293 557 385 557 385 558 293 558 294 558 385 559 294 559 380 559 380 560 294 560 295 560 380 561 295 561 377 561 377 562 295 562 296 562 377 563 296 563 373 563 373 564 296 564 297 564 373 565 297 565 370 565 370 566 297 566 298 566 370 567 298 567 390 567 390 568 298 568 299 568 390 569 299 569 393 569 393 570 299 570 300 570 393 571 300 571 313 571 389 572 387 572 301 572 301 573 387 573 365 573 301 574 365 574 302 574 302 575 365 575 342 575 302 576 342 576 303 576 303 577 342 577 345 577 303 578 345 578 304 578 304 579 345 579 351 579 304 580 351 580 305 580 305 581 351 581 354 581 305 582 354 582 306 582 306 583 354 583 357 583 306 584 357 584 307 584 307 585 357 585 359 585 307 586 359 586 363 586 363 587 337 587 308 587 308 588 337 588 315 588 308 589 315 589 309 589 309 590 315 590 319 590 309 591 319 591 310 591 310 592 319 592 324 592 310 593 324 593 311 593 311 594 324 594 327 594 311 595 327 595 312 595 312 596 327 596 330 596 312 597 330 597 313 597 313 598 330 598 334 598 313 599 334 599 393 599 317 600 314 600 319 600 314 601 315 601 319 601 314 602 316 602 315 602 316 603 337 603 315 603 316 604 336 604 337 604 317 605 319 605 318 605 319 606 320 606 318 606 319 607 320 607 324 607 324 608 321 608 320 608 324 609 322 609 321 609 322 610 324 610 323 610 324 611 325 611 323 611 324 612 327 612 325 612 325 613 327 613 326 613 327 614 329 614 326 614 327 615 330 615 329 615 333 616 328 616 334 616 328 617 330 617 334 617 328 618 331 618 330 618 331 619 329 619 330 619 392 620 393 620 332 620 332 621 393 621 334 621 332 622 335 622 334 622 335 623 333 623 334 623 361 624 338 624 363 624 364 625 365 625 339 625 365 626 340 626 339 626 365 627 342 627 340 627 340 628 342 628 341 628 342 629 343 629 341 629 342 630 345 630 343 630 343 631 345 631 344 631 345 632 346 632 344 632 345 633 351 633 346 633 346 634 351 634 347 634 351 635 348 635 347 635 351 636 349 636 348 636 349 637 351 637 350 637 351 638 352 638 350 638 351 639 354 639 352 639 352 640 354 640 353 640 354 641 355 641 353 641 354 642 357 642 355 642 355 643 357 643 356 643 357 644 358 644 356 644 357 645 358 645 359 645 359 646 358 646 360 646 359 647 360 647 363 647 363 648 360 648 362 648 363 649 362 649 361 649 372 650 370 650 373 650 390 651 366 651 391 651 366 652 390 652 367 652 390 653 368 653 367 653 390 654 370 654 368 654 370 655 369 655 368 655 370 656 372 656 369 656 375 657 371 657 377 657 371 658 373 658 377 658 371 659 374 659 373 659 374 660 372 660 373 660 375 661 377 661 376 661 377 662 378 662 376 662 377 663 380 663 378 663 378 664 380 664 379 664 380 665 381 665 379 665 380 666 385 666 381 666 385 667 382 667 381 667 385 668 383 668 382 668 383 669 385 669 384 669 385 670 386 670 384 670 385 671 389 671 386 671 389 672 388 672 386 672 389 673 388 673 387 673 559 708 557 708 593 708 595 708 6 787 26 787 3 787 6 788 22 788 26 788 8 789 22 789 6 789 8 790 20 790 22 790 11 791 20 791 8 791 11 792 18 792 20 792 25 793 0 793 2 793 1 794 24 794 4 794 9 795 19 795 10 795 7 796 19 796 9 796 7 797 21 797 19 797 5 798 21 798 7 798 5 799 23 799 21 799 23 800 4 800 24 800 5 801 4 801 23 801 10 802 15 802 12 802 18 803 13 803 14 803 11 804 13 804 18 804 3 805 25 805 2 805 26 806 25 806 3 806 16 807 15 807 17 807 162 808 13 808 161 808 161 809 13 809 75 809 284 810 76 810 16 810 284 811 16 811 285 811 285 812 16 812 17 812 285 813 17 813 277 813 277 814 17 814 404 814 162 815 402 815 14 815 162 816 14 816 13 816 4 817 76 817 84 817 84 818 124 818 126 818 107 819 117 819 119 819 75 820 2 820 120 820 120 821 2 821 107 821 35 822 111 822 36 822 36 823 111 823 116 823 78 824 81 824 40 824 63 825 224 825 209 825 63 826 209 826 64 826 75 827 13 827 11 827 2 828 75 828 3 828 3 829 75 829 11 829 3 830 11 830 6 830 6 831 11 831 8 831 12 832 15 832 16 832 16 833 76 833 12 833 12 834 76 834 4 834 12 835 4 835 9 835 9 836 4 836 5 836 9 837 5 837 7 837 9 838 10 838 12 838 85 839 81 839 78 839 92 840 401 840 1 840 92 841 1 841 88 841 88 842 1 842 4 842 88 843 4 843 84 843 105 844 107 844 2 844 2 845 0 845 105 845 105 846 0 846 400 846 111 847 112 847 113 847 111 848 113 848 116 848 209 849 224 849 225 849 163 850 119 850 117 850 126 851 124 851 149 851 210 852 209 852 225 852 550 859 548 859 407 859 409 859 544 860 543 860 402 860 403 860 545 868 534 868 570 868 581 868 423 869 420 869 561 869 564 869 590 919 588 919 552 919 554 919 558 920 556 920 415 920 417 920 530 921 385 921 380 921 530 922 337 922 363 922 530 923 354 923 351 923 530 924 390 924 393 924 530 925 334 925 330 925 530 926 363 926 359 926 530 927 327 927 324 927 530 928 357 928 354 928 530 929 324 929 319 929 530 930 345 930 342 930 530 931 359 931 357 931 530 932 377 932 373 932 530 933 319 933 315 933 389 934 530 934 387 934 530 935 365 935 387 935 530 936 373 936 370 936 530 937 330 937 327 937 365 938 530 938 342 938 530 939 380 939 377 939 530 940 393 940 334 940 337 941 530 941 315 941 530 942 351 942 345 942 390 943 530 943 370 943 530 944 389 944 385 944 395 947 574 947 538 947 531 947 414 948 412 948 553 948 555 948 1 949 401 949 542 949 531 949 536 950 535 950 19 950 21 950 560 951 558 951 417 951 419 951 541 952 539 952 397 952 400 952 25 953 26 953 644 953 535 954 532 954 10 954 19 954 476 955 477 955 567 955 566 955 422 956 423 956 564 956 563 956 406 957 404 957 545 957 547 957 552 958 550 958 409 958 411 958 416 959 414 959 555 959 557 959 531 960 538 960 24 960 1 960 537 961 536 961 21 961 23 961 562 962 560 962 419 962 421 962 401 963 399 963 540 963 542 963 408 964 406 964 547 964 549 964 554 965 552 965 411 965 413 965 400 966 0 966 479 966 541 966 533 967 534 967 17 967 15 967 418 968 416 968 557 968 559 968 23 969 24 969 538 969 537 969 475 970 476 970 566 970 565 970 421 971 422 971 563 971 562 971 546 972 544 972 403 972 405 972 404 973 17 973 534 973 545 973 410 974 408 974 549 974 551 974 556 975 554 975 413 975 415 975 532 976 533 976 15 976 10 976 420 977 418 977 559 977 561 977 409 978 475 978 565 978 550 978 477 979 478 979 568 979 567 979 548 980 546 980 405 980 407 980 412 981 410 981 551 981 553 981 587 982 585 982 624 982 626 982 605 983 608 983 569 983 394 983 602 984 603 984 642 984 641 984 621 985 619 985 580 985 582 985 598 986 599 986 638 986 637 986 595 987 593 987 632 987 634 987 581 988 570 988 609 988 620 988 573 989 572 989 536 989 537 989 562 990 563 990 599 990 598 990 582 991 580 991 544 991 546 991 566 992 567 992 603 992 602 992 394 993 569 993 533 993 532 993 551 994 549 994 585 994 587 994 396 995 577 995 541 995 479 995 592 996 590 996 554 996 556 996 561 997 559 997 595 997 597 997 537 998 538 998 574 998 573 998 584 999 582 999 546 999 548 999 571 1000 394 1000 532 1000 535 1000 553 1001 551 1001 587 1001 589 1001 594 1002 592 1002 556 1002 558 1002 564 1003 561 1003 597 1003 600 1003 580 1004 579 1004 543 1004 544 1004 565 1005 566 1005 602 1005 601 1005 569 1006 570 1006 534 1006 533 1006 586 1007 584 1007 548 1007 550 1007 555 1008 553 1008 589 1008 591 1008 550 1009 565 1009 601 1009 586 1009 596 1010 594 1010 558 1010 560 1010 577 1011 575 1011 539 1011 541 1011 644 1012 22 1012 20 1012 563 1013 564 1013 600 1013 599 1013 547 1014 545 1014 581 1014 583 1014 567 1015 568 1015 604 1015 603 1015 572 1016 571 1016 535 1016 536 1016 588 1017 586 1017 550 1017 552 1017 531 1018 542 1018 578 1018 395 1018 557 1019 555 1019 591 1019 593 1019 598 1020 596 1020 560 1020 562 1020 542 1021 540 1021 576 1021 578 1021 549 1022 547 1022 583 1022 585 1022 607 1023 616 1023 577 1023 396 1023 631 1024 629 1024 590 1024 592 1024 597 1025 595 1025 634 1025 636 1025 623 1026 621 1026 582 1026 584 1026 610 1027 605 1027 394 1027 571 1027 589 1028 587 1028 626 1028 628 1028 573 1029 574 1029 613 1029 612 1029 633 1030 631 1030 592 1030 594 1030 611 1031 610 1031 571 1031 572 1031 600 1032 597 1032 636 1032 639 1032 619 1033 618 1033 579 1033 580 1033 601 1034 602 1034 641 1034 640 1034 608 1035 609 1035 570 1035 569 1035 625 1036 623 1036 584 1036 586 1036 591 1037 589 1037 628 1037 630 1037 612 1038 611 1038 572 1038 573 1038 586 1039 601 1039 640 1039 625 1039 635 1040 633 1040 594 1040 596 1040 616 1041 614 1041 575 1041 577 1041 599 1042 600 1042 639 1042 638 1042 583 1043 581 1043 620 1043 622 1043 603 1044 604 1044 643 1044 642 1044 627 1045 625 1045 586 1045 588 1045 607 1046 25 1046 644 1046 395 1047 578 1047 617 1047 606 1047 593 1048 591 1048 630 1048 632 1048 637 1049 635 1049 596 1049 598 1049 578 1050 576 1050 615 1050 617 1050 585 1051 583 1051 622 1051 624 1051 606 1052 613 1052 574 1052 395 1052 629 1053 627 1053 588 1053 590 1053 396 1054 25 1054 607 1054 644 1055 615 1055 398 1055 398 1056 615 1056 576 1056 614 1057 398 1057 575 1057 398 1058 540 1058 399 1058 644 1059 398 1059 614 1059 398 1060 576 1060 540 1060 539 1061 398 1061 397 1061 575 1063 398 1063 539 1063 622 1065 620 1065 644 1065 638 1066 639 1066 644 1066 644 1067 614 1067 616 1067 644 1068 633 1068 635 1068 625 1069 644 1069 640 1069 644 1070 611 1070 612 1070 630 1071 628 1071 644 1071 642 1072 643 1072 644 1072 644 1073 625 1073 627 1073 479 1074 25 1074 396 1074 606 1075 617 1075 644 1075 632 1076 630 1076 644 1076 644 1077 635 1077 637 1077 617 1078 615 1078 644 1078 624 1079 622 1079 644 1079 644 1080 613 1080 606 1080 644 1081 627 1081 629 1081 0 1082 25 1082 479 1082 620 1083 609 1083 644 1083 634 1084 632 1084 644 1084 637 1085 638 1085 644 1085 644 1086 619 1086 621 1086 641 1087 642 1087 644 1087 644 1088 608 1088 605 1088 626 1089 624 1089 644 1089 644 1090 616 1090 607 1090 644 1091 629 1091 631 1091 636 1092 634 1092 644 1092 644 1093 621 1093 623 1093 644 1094 605 1094 610 1094 628 1095 626 1095 644 1095 612 1096 613 1096 644 1096 644 1097 631 1097 633 1097 644 1098 610 1098 611 1098 639 1099 636 1099 644 1099 644 1100 618 1100 619 1100 640 1101 641 1101 644 1101 644 1102 609 1102 608 1102 644 1103 623 1103 625 1103 26 1128 22 1128 644 1128 644 1129 18 1129 20 1129 543 1130 14 1130 402 1130 478 1131 14 1131 568 1131 568 1132 14 1132 604 1132 579 1133 14 1133 543 1133 604 1134 14 1134 643 1134 618 1135 14 1135 579 1135 643 1136 14 1136 644 1136 644 1137 14 1137 618 1137 18 1138 14 1138 644 1138</p>
        </polylist>
        <polylist material="white_001-material" count="202">
          <input semantic="VERTEX" source="#Mesh-mesh-vertices" offset="0"/>
          <input semantic="NORMAL" source="#Mesh-mesh-normals" offset="1"/>
          <vcount>3 3 3 3 3 3 3 3 3 3 3 3 3 3 3 3 3 3 3 3 3 3 3 3 3 3 3 3 3 3 3 3 3 3 3 3 3 3 3 3 3 3 3 3 3 3 3 3 3 3 3 3 3 3 3 3 3 3 3 3 3 3 3 3 3 3 3 3 3 3 3 3 3 3 3 3 3 3 3 3 3 3 3 3 3 3 3 3 3 3 3 3 3 3 3 3 3 3 3 3 3 3 3 3 3 3 3 3 3 3 3 3 3 3 3 3 3 3 3 3 3 3 3 3 3 3 3 3 3 3 3 3 3 3 3 3 3 3 3 3 3 3 3 3 3 3 3 3 3 3 3 3 3 3 3 3 3 3 3 3 3 3 3 3 3 3 3 3 3 3 3 3 3 3 3 3 3 3 3 3 3 3 3 3 3 3 3 3 3 3 3 3 3 3 3 3 3 3 3 3 3 3 </vcount>
          <p>453 674 526 674 528 674 453 675 503 675 524 675 453 676 449 676 503 676 503 677 449 677 466 677 529 678 528 678 520 678 523 679 521 679 522 679 483 680 481 680 468 680 467 681 469 681 457 681 430 682 432 682 439 682 439 683 441 683 430 683 466 684 456 684 468 684 426 685 424 685 441 685 441 686 424 686 430 686 520 687 514 687 522 687 497 688 524 688 503 688 498 689 515 689 500 689 505 690 516 690 501 690 501 691 516 691 508 691 501 692 508 692 491 692 491 693 508 693 493 693 491 694 493 694 489 694 489 695 493 695 487 695 516 696 518 696 508 696 508 697 518 697 510 697 508 698 510 698 493 698 493 699 510 699 495 699 493 700 495 700 487 700 487 701 495 701 485 701 518 702 522 702 510 702 510 703 522 703 514 703 510 704 514 704 495 704 495 705 514 705 499 705 495 706 499 706 485 706 485 707 499 707 483 707 472 709 487 709 485 709 472 710 485 710 470 710 470 711 485 711 483 711 470 712 483 712 468 712 506 713 507 713 517 713 516 714 505 714 506 714 506 715 517 715 516 715 516 716 517 716 519 716 516 717 519 717 518 717 518 718 519 718 523 718 518 719 523 719 522 719 464 720 472 720 460 720 464 721 460 721 451 721 451 722 460 722 444 722 451 723 444 723 446 723 446 724 444 724 436 724 472 725 470 725 460 725 460 726 470 726 458 726 460 727 458 727 444 727 444 728 458 728 442 728 444 729 442 729 436 729 436 730 442 730 434 730 470 731 468 731 458 731 458 732 468 732 456 732 458 733 456 733 442 733 442 734 456 734 439 734 442 735 439 735 434 735 434 736 439 736 432 736 490 737 488 737 492 737 492 738 488 738 494 738 492 739 494 739 502 739 502 740 494 740 509 740 502 741 509 741 507 741 507 742 509 742 517 742 488 743 486 743 494 743 494 744 486 744 496 744 494 745 496 745 509 745 509 746 496 746 511 746 509 747 511 747 517 747 517 748 511 748 519 748 486 749 484 749 496 749 496 750 484 750 500 750 496 751 500 751 511 751 511 752 500 752 515 752 511 753 515 753 519 753 519 754 515 754 523 754 447 755 446 755 436 755 437 756 448 756 447 756 447 757 436 757 437 757 437 758 436 758 434 758 437 759 434 759 435 759 435 760 434 760 432 760 435 761 432 761 433 761 480 762 474 762 473 762 488 763 490 763 480 763 480 764 473 764 488 764 488 765 473 765 471 765 488 766 471 766 486 766 486 767 471 767 469 767 486 768 469 768 484 768 448 769 437 769 452 769 452 770 437 770 445 770 452 771 445 771 465 771 465 772 445 772 461 772 465 773 461 773 474 773 474 774 461 774 473 774 437 775 435 775 445 775 445 776 435 776 443 776 445 777 443 777 461 777 461 778 443 778 459 778 461 779 459 779 473 779 473 780 459 780 471 780 435 781 433 781 443 781 443 782 433 782 440 782 443 783 440 783 459 783 459 784 440 784 457 784 459 785 457 785 471 785 471 786 457 786 469 786 529 853 527 853 453 853 450 854 429 854 453 854 528 855 529 855 453 855 429 856 427 856 453 856 525 857 504 857 453 857 504 858 450 858 453 858 453 861 425 861 424 861 453 862 428 862 449 862 453 863 426 863 428 863 453 864 424 864 426 864 527 865 525 865 453 865 453 866 524 866 526 866 427 867 425 867 453 867 503 870 466 870 481 870 529 871 520 871 521 871 424 872 425 872 431 872 424 873 431 873 430 873 469 874 467 874 484 874 484 875 467 875 482 875 522 876 521 876 520 876 468 877 481 877 466 877 432 878 430 878 433 878 433 879 430 879 431 879 440 880 438 880 457 880 457 881 438 881 454 881 457 882 454 882 467 882 438 883 440 883 431 883 431 884 440 884 433 884 438 885 431 885 425 885 438 886 425 886 427 886 438 887 427 887 454 887 454 888 427 888 429 888 454 889 429 889 450 889 454 890 450 890 467 890 456 891 455 891 439 891 439 892 455 892 441 892 455 893 456 893 466 893 455 894 466 894 449 894 455 895 449 895 428 895 455 896 428 896 441 896 441 897 428 897 426 897 481 898 483 898 499 898 514 899 512 899 499 899 499 900 512 900 497 900 499 901 497 901 481 901 512 902 514 902 520 902 512 903 520 903 528 903 512 904 528 904 526 904 512 905 526 905 497 905 497 906 526 906 524 906 497 907 503 907 481 907 525 908 498 908 504 908 504 909 498 909 482 909 529 910 521 910 527 910 527 911 521 911 513 911 498 912 525 912 527 912 498 913 527 913 513 913 498 914 513 914 515 914 515 915 513 915 523 915 523 916 513 916 521 916 498 917 500 917 482 917 482 918 500 918 484 918 462 945 489 945 487 945 462 946 487 946 472 946 472 1062 463 1062 462 1062 463 1064 472 1064 464 1064 645 1104 450 1104 504 1104 504 1105 482 1105 645 1105 482 1106 467 1106 645 1106 467 1107 450 1107 645 1107 646 1108 452 1108 465 1108 489 1109 462 1109 646 1109 646 1110 506 1110 505 1110 646 1111 465 1111 474 1111 463 1112 464 1112 646 1112 447 1113 448 1113 646 1113 646 1114 492 1114 502 1114 646 1115 490 1115 492 1115 646 1116 502 1116 507 1116 646 1117 448 1117 452 1117 646 1118 507 1118 506 1118 446 1119 447 1119 646 1119 462 1120 463 1120 646 1120 501 1121 491 1121 646 1121 505 1122 501 1122 646 1122 451 1123 446 1123 646 1123 646 1124 480 1124 490 1124 646 1125 474 1125 480 1125 491 1126 489 1126 646 1126 464 1127 451 1127 646 1127</p>
        </polylist>
      </mesh>
      <extra><technique profile="MAYA"><double_sided>1</double_sided></technique></extra>
    </geometry>
  </library_geometries>
  <library_visual_scenes>
    <visual_scene id="Scene" name="Scene">
      <node id="Camera" name="Camera" type="NODE">
        <translate sid="location">7.481132 -6.50764 5.343665</translate>
        <rotate sid="rotationZ">0 0 1 46.69194</rotate>
        <rotate sid="rotationY">0 1 0 0.619768</rotate>
        <rotate sid="rotationX">1 0 0 63.5593</rotate>
        <scale sid="scale">1 1 1</scale>
        <instance_camera url="#Camera-camera"/>
      </node>
      <node id="Lamp" name="Lamp" type="NODE">
        <translate sid="location">4.076245 1.005454 5.903862</translate>
        <rotate sid="rotationZ">0 0 1 106.9363</rotate>
        <rotate sid="rotationY">0 1 0 3.163707</rotate>
        <rotate sid="rotationX">1 0 0 37.26105</rotate>
        <scale sid="scale">1 1 1</scale>
        <instance_light url="#Lamp-light"/>
      </node>
      <node id="Mesh_001" name="Mesh_001" type="NODE">
        <translate sid="location">0 0 0</translate>
        <rotate sid="rotationZ">0 0 1 0</rotate>
        <rotate sid="rotationY">0 1 0 0</rotate>
        <rotate sid="rotationX">1 0 0 90.00001</rotate>
        <scale sid="scale">1 1 1</scale>
        <instance_geometry url="#Mesh-mesh">
          <bind_material>
            <technique_common>
              <instance_material symbol="black-material" target="#black-material"/>
              <instance_material symbol="white_001-material" target="#white_001-material"/>
            </technique_common>
          </bind_material>
        </instance_geometry>
      </node>
    </visual_scene>
  </library_visual_scenes>
  <scene>
    <instance_visual_scene url="#Scene"/>
  </scene>
</COLLADA>